<?xml version="1.0" encoding="utf-8"?>
<!-- Generator: Adobe Illustrator 25.4.1, SVG Export Plug-In . SVG Version: 6.00 Build 0)  -->
<svg version="1.1" id="Layer_1" xmlns="http://www.w3.org/2000/svg" xmlns:xlink="http://www.w3.org/1999/xlink" x="0px" y="0px"
	 viewBox="0 0 1079.49 261.45" style="enable-background:new 0 0 1079.49 261.45;" xml:space="preserve">
<style type="text/css">
	.st0{fill:#FFFFFF;}
</style>
<g>
	<path class="st0" d="M131.52,239.74c-62.46,0-113.31-50.85-113.31-113.31c0-62.46,50.85-113.31,113.31-113.31
		c62.46,0,113.31,50.85,113.31,113.31C245.23,188.89,193.98,239.74,131.52,239.74z M131.12,81.59c0,0,9.21,9.61,9.21,17.62
		c0,8.41-6.4,10.41-8.81,10.41h-0.4l0,0h-0.4c-2.4,0-8.81-2-8.81-10.41C121.92,91.2,131.12,81.59,131.12,81.59z M45.84,132.84h10.41
		v-19.22h17.22v-8.01H56.25V94.8h18.02v-8.01H45.84V132.84z M140.33,82.79h10.81l-12.81-45.64h-14.01L111.1,82.79h10.01l2.8-10.41
		h13.21L140.33,82.79z M135.93,65.17h-9.61l4.4-20.02h0.8L135.93,65.17z M183.97,109.61c0,13.61,6.41,23.62,19.22,23.62
		c13.21,0,19.62-10.41,19.62-23.62c0-13.61-6.41-23.62-19.62-23.62C189.98,85.99,183.97,96.4,183.97,109.61z M194.78,109.61
		c0-8.81,2-16.01,8.41-16.01c6.4,0,8.41,7.21,8.41,16.01s-2.4,16.01-8.41,16.01C197.18,125.63,194.78,118.42,194.78,109.61z
		 M126.72,227.32c0.8-4.4,1.2-11.61,1.2-20.02c0-2.4,0-0.8,0-1.6c0-11.61-0.4-15.61-8.41-18.42c-12.01-4-17.22-17.62-14.41-34.43
		L65.06,50.76C44.24,69.18,30.63,96.4,30.63,126.43C30.63,180.48,73.47,224.52,126.72,227.32z M131.52,161.66
		c-16.02-3.6-22.02-18.42-22.02-31.23L74.27,43.55c-2.4,1.6-4.4,3.2-6.81,5.2c7.61,18.42,42.84,101.29,42.84,101.29
		c6.01,14.81,17.62,10.01,20.02,22.42c0.8,2.8,0.8,4.4,0.8,4.4h1.2c0,0,0-1.2,0.8-4.4c2.8-12.41,14.01-7.21,20.02-22.42
		c0,0,34.83-82.88,42.84-101.29c-2-1.6-4.4-3.6-6.81-5.2l-35.23,86.88C153.54,143.25,147.54,158.06,131.52,161.66L131.52,161.66z
		 M131.52,135.64c-6.81-1.6-15.21-8.41-16.42-16.82c-0.4-3.2-0.8-4.4-0.4-10.81L83.88,37.95c-2.4,1.2-4.81,2.8-7.21,4.4
		c9.21,20.82,37.64,84.48,37.64,84.48c4.4,9.61,12.41,9.61,15.21,15.21c1.6,3.2,1.6,6.4,2,6.4h1.2c0-0.4,0-3.2,2-6.4
		c2.8-5.6,10.41-6.01,15.21-15.21c0,0,28.43-63.66,37.63-84.48c-2.4-1.6-4.8-3.2-7.21-4.4l-32.03,69.67c0.4,6.41,0,7.61-0.4,10.81
		C146.74,127.23,138.33,134.04,131.52,135.64L131.52,135.64z M131.93,123.63l0.4-4c2-8.81,8.41-7.61,12.81-16.42l0,0
		c0-0.4,22.02-47.24,31.23-66.86c-13.61-6.81-28.83-10.81-44.84-10.81c-16.02,0-31.63,4-44.84,10.81
		c9.21,19.62,31.23,66.86,31.23,66.86l0,0c4.4,8.81,10.81,7.61,12.81,16.42l0.4,4H131.93z M232.42,126.43
		c0-30.03-13.21-57.25-34.43-75.67l-40.04,102.5c2.8,16.82-2.4,30.43-14.41,34.43c-8.01,2.4-8.41,6.4-8.41,18.42c0,0.8,0-0.8,0,1.6
		c0,8.41,0.8,15.61,1.2,20.02C189.98,224.52,232.42,180.48,232.42,126.43z M62.66,156.06c0,0,1.6,3.2,2.8,5.6s2.8,4.8,2.8,4.8
		l-2.8,1.6c0,0-2-3.2-4-7.21c-0.4,0.4-3.6,2-4.4,2c0.4,0.4,3.6,6.81,3.6,6.81l-2.8,1.6c0,0-3.2-6.4-3.6-6.81c-0.4,0.4-7.61,4-7.61,4
		l-1.6-3.2L62.66,156.06L62.66,156.06z M73.07,173.27l2.4,2.8l-14.81,12.41l-2.4-2.8L73.07,173.27L73.07,173.27z M86.68,186.49
		l2.8,2l-3.6,20.42l-3.2-2c0,0,0.8-4,0.8-4.4c0,0-2-1.2-4-2.8c-2-1.2-3.6-2.8-4-3.2c-0.4,0.4-4,2.4-4,2.4l-2.8-2.4L86.68,186.49
		L86.68,186.49z M78.27,194.89c0.4,0.4,1.6,1.2,2.8,2.4c1.2,0.8,2.8,1.6,3.2,2c0-0.8,1.6-7.61,2-8.81
		C85.08,190.89,79.07,194.49,78.27,194.89z M99.09,193.69c0,0,3.2,1.6,7.61,3.2c3.2,1.2,5.6,2,8.01,2.4l-0.8,2.8
		c0,0-2.4-0.4-6.4-1.6c-0.4,0.8-5.21,15.21-5.21,15.21l-3.6-1.2c0,0,5.21-14.41,5.21-15.21c-3.6-1.2-6.01-2.8-6.01-2.8L99.09,193.69
		z M159.55,197.7c1.2,0.8,2,2,2.8,3.6c0.4,0.8,0.4,1.2,0.4,2c0,2.8-2,4.8-5.2,6.01c0,0-1.6,0.4-2.4,0.8c0.4,0.8,2.4,7.21,2.4,7.21
		l-3.2,0.8l-5.6-18.42l5.21-1.6C155.95,196.9,157.95,196.9,159.55,197.7z M152.74,201.3c0,0.4,1.6,5.21,1.6,5.6
		c0.8-0.4,2.4-0.8,2.4-0.8c0.4,0,1.6-0.8,2.4-1.6c0-0.4,0.4-0.8,0.4-1.2s0-0.8,0-0.8c-0.4-0.8-0.8-1.2-1.2-1.6
		c-1.2-0.4-2.4-0.4-3.2,0C154.35,200.5,153.14,200.9,152.74,201.3z M171.16,189.69l16.82,12.01l-2.8,2c0,0-3.2-2.4-3.6-2.8
		c0,0-2,1.2-3.6,2.4s-3.6,2-4,2c0,0.4,0.8,4.4,0.8,4.4l-3.6,2l-2.8-20.42L171.16,189.69z M173.16,202.5c0.4-0.4,1.6-0.8,3.2-1.6
		c1.2-0.8,2-1.2,2.4-1.6c-0.8-0.4-6.01-4.4-6.81-5.21C171.96,195.29,172.76,201.7,173.16,202.5z M190.38,172.87l14.41,12.81
		l-2.8,3.2c0,0-13.61-4-15.62-4.4c1.6,1.6,10.01,10.41,10.01,10.41l-2.4,2.4l-13.61-14.01l3.2-2.8c0,0,13.21,4,15.21,4.4
		c-1.6-1.6-10.41-9.21-10.41-9.21L190.38,172.87z M196.79,163.27l16.82,9.61l-1.6,2.8l-16.82-9.61L196.79,163.27z M203.99,146.85
		l2.8,1.6l-0.4,0.4c-0.8,1.2-1.2,1.6-2,3.2c-0.4,0.4-0.4,1.6,0,2.4c0.4,0.4,0.4,0.8,1.2,0.8c1.2,0.4,2.4-0.8,3.6-2
		c1.6-2,4-4,7.61-2.8s4.8,4.4,3.2,8.81c-0.4,1.2-1.2,2.4-2,3.6v0.4l-2.8-1.6l0.4-0.4c0.4-0.4,1.6-2,2-3.2s0.4-3.6-1.6-4
		c-1.6-0.4-2.8,0.8-4.4,2c-1.6,1.6-3.6,4-6.81,2.8c-1.6-0.4-2.4-1.2-3.2-2.4c-0.8-1.6-0.8-3.2,0-5.21
		C202.39,149.65,203.19,148.45,203.99,146.85L203.99,146.85z"/>
</g>
<g>
	<path class="st0" d="M302.89,35.15c9.21,0,17.62,6.81,17.62,22.82s-8.41,22.82-17.62,22.82c-9.21,0-17.62-6.81-17.62-22.82
		C285.27,42.35,293.68,35.15,302.89,35.15z M302.89,75.18c5.2,0,9.21-4.4,9.21-16.82c0-12.41-4-16.82-9.21-16.82
		c-5.2,0-9.21,4.4-9.21,16.82C293.68,70.78,297.68,75.18,302.89,75.18z"/>
	<path class="st0" d="M327.71,53.16c0-2,0-4-0.4-5.6h7.21c0,2,0.4,4,0.4,6.01l0,0c0.8-2.4,3.6-6.4,8.41-6.4c0.4,0,0.8,0,1.2,0v7.61
		c-0.8,0-1.6-0.4-2.4-0.4c-3.2,0-6.81,2-6.81,8.01v18.02h-8.01V53.16H327.71z"/>
	<path class="st0" d="M350.13,85.59c2,1.2,5.6,2.8,9.61,2.8c7.61,0,8.81-5.21,8.81-10.41v-3.2l0,0c-1.2,2.4-3.6,5.61-8.81,5.61
		c-4.8,0-11.61-3.2-11.61-16.42c0-9.21,3.2-17.22,12.01-17.22c4.8,0,7.21,2.8,8.81,5.6h0.4c0-1.6,0-3.2,0.4-5.2h7.21
		c0,1.6-0.4,3.6-0.4,5.2v24.42c0,10.41-3.2,17.62-15.21,17.62c-5.2,0-9.61-1.2-11.21-2V85.59z M361.74,74.78
		c4.8,0,6.81-3.6,6.81-11.21c0-6.81-2.8-10.81-6.41-10.41c-4,0-5.61,4-5.61,10.81C356.53,71.58,358.94,74.78,361.74,74.78z"/>
	<path class="st0" d="M385.36,49.56c2.4-1.2,5.2-2.4,10.41-2.4c10.41,0,12.41,4.8,12.41,13.21v14.41c0,2.4,0.4,4.4,0.4,6.01h-7.21
		c-0.4-1.2-0.4-2.8-0.4-4.4l0,0c-2,2.8-4.4,4.81-9.21,4.81c-5.2,0-10.01-3.6-10.01-9.61c0-8.81,7.21-11.21,17.22-11.21h1.6v-1.2
		c0-3.2-1.6-6.41-6.01-6.41c-4,0-7.61,2-9.21,3.2L385.36,49.56L385.36,49.56z M400.98,64.37h-0.8c-6.81,0-10.81,1.6-10.81,6.41
		c0,3.2,2,5.2,5.2,5.2c4.8,0,6.41-3.6,6.41-9.61L400.98,64.37L400.98,64.37z"/>
	<path class="st0" d="M415.79,53.16c0-2,0-4-0.4-5.6H423c0,1.6,0.4,3.2,0.4,5.2l0,0c1.2-2,3.2-5.6,8.81-5.6
		c7.61,0,9.61,5.6,9.61,12.41v21.22h-8.01V61.17c0-5.21-1.2-7.21-4.4-7.21c-4,0-5.61,3.6-5.61,7.61v19.22h-8.01V53.16z"/>
	<path class="st0" d="M449.42,33.54h8.01v8.01h-8.01V33.54z M449.42,47.56h8.01v32.83h-8.01V47.56z"/>
	<path class="st0" d="M463.83,73.98l14.01-20.02h-13.61v-6.4h21.62v6.81l-14.01,20.02h14.41v6.01h-22.42V73.98z"/>
	<path class="st0" d="M493.06,49.56c2.4-1.2,5.2-2.4,10.41-2.4c10.41,0,12.41,4.8,12.41,13.21v14.41c0,2.4,0.4,4.4,0.4,6.01h-7.21
		c-0.4-1.2-0.4-2.8-0.4-4.4l0,0c-2,2.8-4.4,4.81-9.21,4.81c-5.2,0-10.01-3.6-10.01-9.61c0-8.81,7.21-11.21,17.22-11.21h1.6v-1.2
		c0-3.2-1.6-6.41-6.01-6.41c-4,0-7.61,2-9.21,3.2L493.06,49.56L493.06,49.56z M508.68,64.37h-0.8c-6.81,0-10.81,1.6-10.81,6.41
		c0,3.2,2,5.2,5.2,5.2c4.8,0,6.41-3.6,6.41-9.61L508.68,64.37L508.68,64.37z"/>
	<path class="st0" d="M545.91,79.99c-2,0.8-4.8,1.2-8.01,1.2c-10.81,0-15.61-7.61-15.61-16.82c0-9.21,4.8-17.22,16.02-17.22
		c2.4,0,5.6,0.8,6.81,1.2l-0.4,6.41c-1.6-0.8-3.2-1.6-5.6-1.6c-6.01,0-8.81,4-8.81,11.21c0,6.01,2.8,10.81,9.21,10.81
		c2,0,4.4-0.8,5.6-1.6L545.91,79.99z"/>
	<path class="st0" d="M551.52,33.54h8.01v8.01h-8.01V33.54z M551.52,47.56h8.01v32.83h-8.01V47.56z"/>
	<path class="st0" d="M581.14,47.16c6.81,0,14.41,3.6,14.41,16.81c0,14.01-7.61,17.22-14.41,17.22c-6.81,0-14.41-3.2-14.41-17.22
		C566.33,50.76,574.34,47.16,581.14,47.16z M581.14,75.58c5.21,0,6.41-6,6.41-11.21c0-5.6-1.2-11.21-6.41-11.21
		s-6.41,6.01-6.41,11.21C574.74,69.58,575.94,75.58,581.14,75.58z M581.54,34.74h7.61l-6.41,9.21h-4.8L581.54,34.74z"/>
	<path class="st0" d="M601.96,53.16c0-2,0-4-0.4-5.6h7.61c0,1.6,0.4,3.2,0.4,5.2l0,0c1.2-2,3.2-5.6,8.81-5.6
		c7.61,0,9.61,5.6,9.61,12.41v21.22h-8.01V61.17c0-5.21-1.2-7.21-4.4-7.21c-4,0-5.6,3.6-5.6,7.61v19.22h-8.01V53.16L601.96,53.16z"
		/>
	<path class="st0" d="M678.84,32.74v42.44c0,2.4,0,4.4,0.4,5.61h-7.61c0-0.8-0.4-2.8-0.4-5.21l0,0c-1.2,2.8-3.6,5.61-8.81,5.61
		c-8.01,0-11.61-8.01-11.61-16.82c0-10.81,4.4-17.22,11.21-17.22c4.8,0,7.21,2.8,8.41,5.2l0,0V32.74H678.84L678.84,32.74z
		 M664.42,75.18c4.8,0,6.41-5.2,6.41-11.21c0-6.41-1.6-11.21-6.01-11.21s-6.01,4.4-6.01,10.81
		C658.82,71.58,660.02,75.18,664.42,75.18z"/>
	<path class="st0" d="M710.07,79.19c-1.6,0.8-5.21,2-10.01,2c-10.81,0-15.21-7.61-15.21-16.42c0-10.01,5.21-17.62,13.61-17.62
		c7.21,0,13.21,4,13.21,17.62v1.6h-19.22c0,5.6,2.4,9.21,8.41,9.21c4.8,0,7.21-1.6,8.81-2.4L710.07,79.19z M704.06,61.17
		c0-6.01-2-8.81-5.6-8.81c-4,0-6.01,4.4-6.01,8.81H704.06z"/>
	<path class="st0" d="M735.29,32.74h8.01v48.04h-8.01V32.74z"/>
	<path class="st0" d="M752.91,49.56c2.4-1.2,5.21-2.4,10.41-2.4c10.41,0,12.41,4.8,12.41,13.21v14.41c0,2.4,0.4,4.4,0.4,6.01h-7.21
		c-0.4-1.2-0.4-2.8-0.4-4.4l0,0c-2,2.8-4.4,4.81-9.21,4.81c-5.21,0-10.01-3.6-10.01-9.61c0-8.81,7.21-11.21,17.22-11.21h1.6v-1.2
		c0-3.2-1.6-6.41-6.01-6.41c-4,0-7.61,2-9.21,3.2V49.56z M768.52,64.37h-0.8c-6.81,0-10.81,1.6-10.81,6.41c0,3.2,2,5.2,5.21,5.2
		c4.8,0,6.41-3.6,6.41-9.61V64.37L768.52,64.37z"/>
	<path class="st0" d="M782.53,73.18c1.2,0.4,4.4,2,8.41,2c2.8,0,5.21-0.8,5.21-3.2c0-1.2-0.8-2.4-3.6-4l-3.2-2
		c-3.2-2-6.81-4-6.81-9.21c0-4.4,4.4-9.21,11.21-9.21c4.4,0,7.61,1.2,8.41,1.2l-0.4,6.01c-2-0.8-4-1.6-6.81-1.6
		c-3.2,0-4.4,1.2-4.4,3.2c0,1.6,1.6,2.8,3.6,4.4l4,2.4c4,2.8,6.01,4.4,6.01,8.41c0,6.01-5.21,9.61-12.41,9.61
		c-4,0-7.61-0.8-9.21-1.6V73.18z"/>
	<path class="st0" d="M826.97,35.95h9.61l14.81,35.23l0,0V35.95H859v44.84h-9.61l-14.81-34.83l0,0v34.83h-7.61V35.95z"/>
	<path class="st0" d="M869.01,49.56c2.4-1.2,5.21-2.4,10.41-2.4c10.41,0,12.81,4.8,12.81,13.21v14.41c0,2.4,0.4,4.4,0.4,6.01h-7.21
		c-0.4-1.2-0.4-2.8-0.4-4.4l0,0c-2,2.8-4.4,4.81-9.21,4.81c-5.21,0-10.01-3.6-10.01-9.61c0-8.81,7.21-11.21,17.22-11.21h1.6v-1.2
		c0-3.2-1.6-6.41-6.01-6.41c-4,0-7.61,2-9.21,3.2L869.01,49.56z M884.63,64.37h-0.8c-6.81,0-10.81,1.6-10.81,6.41
		c0,3.2,2,5.2,5.21,5.2c4.8,0,6.41-3.6,6.41-9.61L884.63,64.37L884.63,64.37z"/>
	<path class="st0" d="M921.86,79.99c-2,0.8-4.8,1.2-8.01,1.2c-10.81,0-15.61-7.61-15.61-16.82c0-9.21,4.8-17.22,16.02-17.22
		c2.4,0,5.6,0.8,6.81,1.2l-0.4,6.41c-1.6-0.8-3.2-1.6-5.6-1.6c-6.01,0-8.81,4-8.81,11.21c0,6.01,2.8,10.81,9.21,10.81
		c2,0,4.4-0.8,5.6-1.6L921.86,79.99z"/>
	<path class="st0" d="M927.47,33.54h8.01v8.01h-8.01V33.54z M927.47,47.56h8.01v32.83h-8.01V47.56z"/>
	<path class="st0" d="M957.1,47.16c6.81,0,14.41,3.6,14.41,16.81c0,14.01-7.61,17.22-14.41,17.22c-6.81,0-14.41-3.2-14.41-17.22
		C942.28,50.76,950.29,47.16,957.1,47.16z M957.1,75.58c5.21,0,6.41-6,6.41-11.21c0-5.6-1.2-11.21-6.41-11.21s-6.41,6.01-6.41,11.21
		S951.89,75.58,957.1,75.58z"/>
	<path class="st0" d="M977.52,53.16c0-2,0-4-0.4-5.6h7.61c0,1.6,0.4,3.2,0.4,5.2l0,0c1.2-2,3.2-5.6,8.81-5.6
		c7.61,0,9.61,5.6,9.61,12.41v21.22h-8.01V61.17c0-5.21-1.2-7.21-4.4-7.21c-4,0-5.6,3.6-5.6,7.61v19.22h-8.01L977.52,53.16
		L977.52,53.16z"/>
	<path class="st0" d="M1035.17,79.19c-1.6,0.8-5.2,2-10.01,2c-10.81,0-15.22-7.61-15.22-16.42c0-10.01,5.21-17.62,13.61-17.62
		c7.21,0,13.21,4,13.21,17.62v1.6h-19.22c0,5.6,2.4,9.21,8.41,9.21c4.81,0,7.21-1.6,8.81-2.4L1035.17,79.19z M1029.16,61.17
		c0-6.01-2-8.81-5.6-8.81c-4,0-6.01,4.4-6.01,8.81H1029.16z"/>
	<path class="st0" d="M1041.97,73.18c1.2,0.4,4.4,2,8.41,2c2.8,0,5.2-0.8,5.2-3.2c0-1.2-0.8-2.4-3.6-4l-3.2-2
		c-3.2-2-6.81-4-6.81-9.21c0-4.4,4.4-9.21,11.21-9.21c4.4,0,7.61,1.2,8.41,1.2l-0.4,6.01c-2-0.8-4-1.6-6.81-1.6
		c-3.2,0-4.4,1.2-4.4,3.2c0,1.6,1.6,2.8,3.6,4.4l4,2.4c4,2.8,6.01,4.4,6.01,8.41c0,6.01-5.2,9.61-12.41,9.61c-4,0-7.61-0.8-9.21-1.6
		L1041.97,73.18L1041.97,73.18z"/>
	<path class="st0" d="M294.88,108.41v28.83c0,7.61,2.4,10.01,7.21,10.01c4.8,0,6.81-2.4,6.81-10.01v-28.83h8.01v28.83
		c0,11.61-6.81,16.42-15.21,16.42c-8.41,0-15.21-4.8-15.21-16.42v-28.83H294.88z"/>
	<path class="st0" d="M324.9,125.63c0-2,0-4-0.4-5.61h7.61c0,1.6,0.4,3.2,0.4,5.21l0,0c1.2-2,3.2-5.61,8.81-5.61
		c7.61,0,9.61,5.61,9.61,12.41v21.22h-8.01v-19.62c0-5.21-1.2-7.21-4.4-7.21c-4,0-5.61,3.6-5.61,7.61v19.22h-8.01V125.63z"/>
	<path class="st0" d="M358.94,106.01h8.01v8.01h-8.01V106.01z M358.94,120.02h8.01v32.83h-8.01V120.02z"/>
	<path class="st0" d="M401.78,104.81v42.44c0,2.4,0,4.4,0.4,5.6h-7.61c0-0.8-0.4-2.8-0.4-5.21l0,0c-1.2,2.8-3.6,5.6-8.81,5.6
		c-8.01,0-11.61-7.61-11.61-16.82c0-10.81,4.4-17.22,11.21-17.22c4.8,0,7.21,2.8,8.41,5.2l0,0v-19.62L401.78,104.81L401.78,104.81z
		 M387.76,147.65c4.8,0,6.41-5.2,6.41-11.21c0-6.41-1.6-11.21-6.01-11.21s-6.01,4.4-6.01,10.81
		C381.76,144.05,382.96,147.65,387.76,147.65z"/>
	<path class="st0" d="M410.98,122.03c2.4-1.2,5.2-2.4,10.41-2.4c10.41,0,12.41,4.81,12.41,13.21v14.41c0,2.4,0.4,4.4,0.4,6.01H427
		c-0.4-1.2-0.4-2.8-0.4-4.4l0,0c-2,2.8-4.4,4.8-9.21,4.8c-5.2,0-10.01-3.6-10.01-9.61c0-8.81,7.21-11.21,17.22-11.21h1.6v-1.2
		c0-3.2-1.6-6.41-6.01-6.41c-4,0-7.61,2-9.21,3.2V122.03z M426.6,136.84h-0.8c-6.81,0-10.81,1.6-10.81,6.41c0,3.2,2,5.2,5.2,5.2
		c4.8,0,6.41-3.6,6.41-9.21L426.6,136.84L426.6,136.84z"/>
	<path class="st0" d="M440.21,145.25c1.2,0.4,4.4,2,8.41,2c2.8,0,5.2-0.8,5.2-3.2c0-1.2-0.8-2.4-3.6-4l-3.2-2
		c-3.2-2-6.81-4-6.81-9.21c0-4.4,4.4-9.21,11.21-9.21c4.4,0,7.61,1.2,8.41,1.2l-0.4,6.01c-2-0.8-4-1.6-6.81-1.6
		c-3.2,0-4.4,1.2-4.4,3.2c0,1.6,1.6,2.8,3.6,4.4l4,2.4c4,2.8,6.01,4.4,6.01,8.41c0,6.01-5.2,9.61-12.41,9.61c-4,0-7.61-0.8-9.21-1.6
		V145.25z"/>
	<path class="st0" d="M483.85,125.63c0-2.4,0-4.4-0.4-5.61h7.61c0,0.8,0.4,2.8,0.4,5.21l0,0c1.2-2.8,3.6-5.61,8.81-5.61
		c8.01,0,11.61,8.01,11.61,16.82c0,10.81-4.4,17.22-11.21,17.22c-4.8,0-7.21-2.8-8.41-5.21l0,0v18.42h-8.01v-41.24H483.85z
		 M498.27,147.65c4.4,0,6.01-4.4,6.01-10.81c0-7.61-1.2-11.61-6.01-11.61c-4.8,0-6.41,5.2-6.41,11.21
		C491.86,142.85,493.86,147.65,498.27,147.65z"/>
	<path class="st0" d="M519.89,122.03c2.4-1.2,5.21-2.4,10.41-2.4c10.41,0,12.41,4.81,12.41,13.21v14.41c0,2.4,0.4,4.4,0.4,6.01
		h-7.21c-0.4-1.2-0.4-2.8-0.4-4.4l0,0c-2,2.8-4.4,4.8-9.21,4.8c-5.21,0-10.01-3.6-10.01-9.61c0-8.81,7.21-11.21,17.22-11.21h1.6
		v-1.2c0-3.2-1.6-6.41-6.01-6.41c-4,0-7.61,2-9.21,3.2V122.03z M535.5,136.84h-0.8c-6.81,0-10.81,1.6-10.81,6.41
		c0,3.2,2,5.2,5.2,5.2c4.8,0,6.41-3.6,6.41-9.21L535.5,136.84L535.5,136.84z"/>
	<path class="st0" d="M550.32,125.63c0-2,0-4-0.4-5.61h7.21c0,2,0.4,4,0.4,6.01l0,0c0.8-2.4,3.6-6.41,8.41-6.41c0.4,0,0.8,0,1.2,0
		v7.61c-0.8,0-1.6-0.4-2.4-0.4c-3.2,0-6.81,2-6.81,8.01v18.02h-8.01v-27.23H550.32z"/>
	<path class="st0" d="M573.54,122.03c2.4-1.2,5.2-2.4,10.41-2.4c10.41,0,12.81,4.81,12.81,13.21v14.41c0,2.4,0.4,4.4,0.4,6.01h-7.21
		c-0.4-1.2-0.4-2.8-0.4-4.4l0,0c-2,2.8-4.4,4.8-9.21,4.8c-5.21,0-10.01-3.6-10.01-9.61c0-8.81,7.21-11.21,17.22-11.21h1.6v-1.2
		c0-3.2-1.6-6.41-6.01-6.41c-4,0-7.61,2-9.21,3.2L573.54,122.03z M589.55,136.84h-0.8c-6.81,0-10.81,1.6-10.81,6.41
		c0,3.2,2,5.2,5.21,5.2c4.8,0,6.41-3.6,6.41-9.21L589.55,136.84L589.55,136.84z"/>
	<path class="st0" d="M621.58,104.81h8.01v48.04h-8.01V104.81z"/>
	<path class="st0" d="M639.2,122.03c2.4-1.2,5.21-2.4,10.41-2.4c10.41,0,12.81,4.81,12.81,13.21v14.41c0,2.4,0.4,4.4,0.4,6.01h-7.21
		c-0.4-1.2-0.4-2.8-0.4-4.4l0,0c-2,2.8-4.4,4.8-9.21,4.8c-5.2,0-10.01-3.6-10.01-9.61c0-8.81,7.21-11.21,17.22-11.21h1.6v-1.2
		c0-3.2-1.6-6.41-6.01-6.41c-4,0-7.61,2-9.21,3.2L639.2,122.03z M654.81,136.84h-0.8c-6.81,0-10.81,1.6-10.81,6.41
		c0,3.2,2,5.2,5.2,5.2c4.8,0,6.41-3.6,6.41-9.21L654.81,136.84L654.81,136.84z"/>
	<path class="st0" d="M706.06,142.45h-15.21l-3.2,10.81h-8.01l14.81-44.84h8.81l14.41,44.84h-8.41L706.06,142.45z M704.46,136.04
		l-5.6-20.82l0,0l-6.01,20.82H704.46z"/>
	<path class="st0" d="M722.48,104.81h8.01v48.04h-8.01V104.81z"/>
	<path class="st0" d="M738.89,106.01h8.01v8.01h-8.01V106.01z M738.89,120.02h8.01v32.83h-8.01V120.02z"/>
	<path class="st0" d="M754.91,125.23c0-2.4,0-4-0.4-5.21h8.01c0,1.6,0.4,3.6,0.4,5.21l0,0c1.2-2.4,3.6-5.61,8.41-5.61
		c5.6,0,7.21,3.6,8.41,5.21c1.6-2.4,4-5.21,8.81-5.21c7.21,0,9.61,5.21,9.61,13.21v20.42h-8.01v-20.82c0-4-1.2-6.01-4.4-6.01
		c-3.6,0-5.21,3.2-5.21,6.81v20.02h-8.01v-20.82c0-4-1.2-6.01-4.4-6.01c-3.6,0-5.2,3.2-5.2,6.81v20.02h-8.01V125.23L754.91,125.23z"
		/>
	<path class="st0" d="M828.98,151.25c-1.6,0.8-5.21,2-10.01,2c-10.81,0-15.21-7.61-15.21-16.41c0-10.01,5.21-17.62,13.61-17.62
		c7.21,0,13.21,4,13.21,17.62v1.6h-19.22c0,5.6,2.4,9.21,8.41,9.21c4.8,0,7.21-1.6,8.81-2.4L828.98,151.25z M822.97,133.64
		c0-6.01-2-8.81-5.6-8.81c-4,0-6.01,4.4-6.01,8.81H822.97z"/>
	<path class="st0" d="M836.58,125.63c0-2,0-4-0.4-5.61h7.61c0,1.6,0.4,3.2,0.4,5.21l0,0c1.2-2,3.2-5.61,8.81-5.61
		c7.61,0,9.61,5.61,9.61,12.41v21.22h-8.01v-19.62c0-5.21-1.2-7.21-4.4-7.21c-4,0-5.6,3.6-5.6,7.61v19.22h-8.01L836.58,125.63
		L836.58,125.63z"/>
	<path class="st0" d="M873.02,113.22l8.01-2.4v9.21h6.41v6.01h-6.41v17.22c0,3.6,1.2,4.4,3.6,4.4c1.6,0,2.4-0.4,3.2-0.8v5.6
		c-1.2,0.4-2.8,1.2-5.2,1.2c-6.01,0-9.21-2.8-9.21-9.61v-18.02h-5.21v-6.01h5.21v-6.81L873.02,113.22L873.02,113.22z"/>
	<path class="st0" d="M893.84,122.03c2.4-1.2,5.21-2.4,10.41-2.4c10.41,0,12.81,4.81,12.81,13.21v14.41c0,2.4,0.4,4.4,0.4,6.01
		h-7.21c-0.4-1.2-0.4-2.8-0.4-4.4l0,0c-2,2.8-4.4,4.8-9.21,4.8c-5.21,0-10.01-3.6-10.01-9.61c0-8.81,7.21-11.21,17.22-11.21h1.6
		v-1.2c0-3.2-1.6-6.41-6.01-6.41c-4,0-7.61,2-9.21,3.2L893.84,122.03z M909.45,136.84h-0.8c-6.81,0-10.81,1.6-10.81,6.41
		c0,3.2,2,5.2,5.21,5.2c4.8,0,6.41-3.6,6.41-9.21L909.45,136.84L909.45,136.84z"/>
	<path class="st0" d="M946.69,152.05c-2,0.8-4.8,1.2-8.01,1.2c-10.81,0-15.61-7.61-15.61-16.82c0-9.21,4.8-17.22,16.02-17.22
		c2.4,0,5.6,0.8,6.81,1.2l-0.4,6.41c-1.6-0.8-3.2-1.6-5.6-1.6c-6.01,0-8.81,4-8.81,11.21c0,6.01,2.8,10.81,9.21,10.81
		c2,0,4.4-0.8,5.6-1.6L946.69,152.05z"/>
	<path class="st0" d="M952.29,106.01h8.01v8.01h-8.01V106.01z M952.29,120.02h8.01v32.83h-8.01V120.02z"/>
	<path class="st0" d="M981.92,119.62c6.81,0,14.41,3.6,14.41,16.82c0,14.01-7.61,17.22-14.41,17.22c-6.81,0-14.41-3.2-14.41-17.22
		C967.51,123.23,975.11,119.62,981.92,119.62z M981.92,148.05c5.21,0,6.41-6.01,6.41-11.21s-1.2-11.21-6.41-11.21
		c-5.2,0-6.41,6.01-6.41,11.21S976.72,148.05,981.92,148.05z M982.32,107.21h7.61l-6.41,9.21h-4.8L982.32,107.21z"/>
	<path class="st0" d="M1002.74,125.63c0-2,0-4-0.4-5.61h7.61c0,1.6,0.4,3.2,0.4,5.21l0,0c1.2-2,3.2-5.61,8.81-5.61
		c7.61,0,9.61,5.61,9.61,12.41v21.22h-8.01v-19.62c0-5.21-1.2-7.21-4.4-7.21c-4,0-5.6,3.6-5.6,7.61v19.22h-8.01L1002.74,125.63
		L1002.74,125.63z"/>
	<path class="st0" d="M297.68,217.32L297.68,217.32l6.4-24.82h7.61l-12.01,39.24c-1.6,4.4-4,8.01-9.61,8.01c-2,0-4-0.4-5.2-0.8
		l0.4-6.01c0.8,0.4,1.6,0.8,3.2,0.8c2.4,0,3.2-1.6,4.4-4.8l0.4-2.8l-10.81-33.23h8.01L297.68,217.32z"/>
	<path class="st0" d="M332.91,177.28h8.01v48.04h-8.01V177.28z"/>
	<path class="st0" d="M350.53,194.09c2.4-1.2,5.2-2.4,10.41-2.4c10.41,0,12.81,4.8,12.81,13.21v14.41c0,2.4,0.4,4.4,0.4,6.01h-7.21
		c-0.4-1.2-0.4-2.8-0.4-4.4l0,0c-2,2.8-4.4,4.8-9.21,4.8c-5.2,0-10.01-3.6-10.01-9.61c0-8.81,7.21-11.21,17.22-11.21h1.6v-1.2
		c0-3.2-1.6-6.41-6.01-6.41c-4,0-7.61,2-9.21,3.2L350.53,194.09z M366.14,209.31h-0.8c-6.81,0-10.81,1.6-10.81,6.01
		c0,3.2,2,5.2,5.2,5.2c4.8,0,6.41-3.6,6.41-9.21L366.14,209.31L366.14,209.31z"/>
	<path class="st0" d="M417.39,214.51h-15.21l-3.2,10.81h-8.01l14.81-44.84h8.81L429,225.32h-8.41L417.39,214.51z M415.79,208.51
		l-5.61-20.82l0,0l-6.01,20.82H415.79z"/>
	<path class="st0" d="M434.21,230.53c2,1.2,5.61,2.8,9.61,2.8c7.61,0,8.81-5.21,8.81-10.41v-3.2l0,0c-1.2,2.4-3.6,5.6-8.81,5.6
		c-4.8,0-11.61-3.2-11.61-16.41c0-9.21,3.2-17.22,12.01-17.22c4.8,0,7.21,2.8,8.81,5.6h0.4c0-1.6,0-3.2,0.4-5.2h7.21
		c0,1.6-0.4,3.6-0.4,5.2v24.42c0,10.41-3.2,17.62-15.21,17.62c-5.2,0-9.61-1.2-11.21-2L434.21,230.53L434.21,230.53z M445.42,219.32
		c4.8,0,6.81-3.6,6.81-11.21c0-6.81-2.8-10.81-6.4-10.41c-4,0-5.61,4-5.61,10.81C440.21,216.11,442.61,219.32,445.42,219.32z"/>
	<path class="st0" d="M467.44,197.7c0-2,0-4-0.4-5.6h7.21c0,2,0.4,4,0.4,6.01l0,0c0.8-2.4,3.6-6.4,8.41-6.4c0.4,0,0.8,0,1.2,0v7.61
		c-0.8,0-1.6-0.4-2.4-0.4c-3.2,0-6.81,2-6.81,8.01v18.02h-8.01V197.7L467.44,197.7L467.44,197.7z"/>
	<path class="st0" d="M490.66,178.48h8.01v8.01h-8.01V178.48z M490.66,192.49h8.01v32.83h-8.01V192.49z"/>
	<path class="st0" d="M529.09,224.52c-2,0.8-4.8,1.2-8.01,1.2c-10.81,0-15.61-7.61-15.61-16.82c0-9.21,4.8-17.22,16.02-17.22
		c2.4,0,5.6,0.8,6.81,1.2l-0.4,6.41c-1.6-0.8-3.2-1.6-5.6-1.6c-6.01,0-8.81,4-8.81,11.21c0,6.01,2.8,10.81,9.21,10.81
		c2,0,4.4-0.8,5.6-1.6L529.09,224.52z"/>
	<path class="st0" d="M559.92,219.72c0,2,0,4,0.4,5.6h-7.61c0-1.6-0.4-3.2-0.4-5.21l0,0l0,0c-1.6,2.4-3.6,5.6-8.81,5.6
		c-7.61,0-9.61-5.6-9.61-12.41v-21.22h8.01v19.62c0,5.2,1.6,7.21,4.8,7.21c4.4,0,5.6-4,5.6-8.01v-18.82h8.01v27.62L559.92,219.72
		L559.92,219.72z"/>
	<path class="st0" d="M567.93,177.28h8.01v48.04h-8.01V177.28z"/>
	<path class="st0" d="M586.75,185.69l8.01-2.4v9.21h6.41v6.01h-6.41v17.22c0,3.6,1.2,4.4,3.6,4.4c1.6,0,2.4-0.4,3.2-0.8v5.6
		c-1.2,0.4-2.8,1.2-5.2,1.2c-6.01,0-9.21-2.8-9.21-9.61V198.5h-5.21v-6.01h5.21v-6.81L586.75,185.69L586.75,185.69z"/>
	<path class="st0" d="M632.39,219.72c0,2,0,4,0.4,5.6h-7.61c0-1.6-0.4-3.2-0.4-5.21l0,0l0,0c-1.6,2.4-3.6,5.6-8.81,5.6
		c-7.61,0-9.61-5.6-9.61-12.41v-21.22h8.01v19.62c0,5.2,1.6,7.21,4.8,7.21c4.4,0,5.6-4,5.6-8.01v-18.82h8.01v27.62L632.39,219.72
		L632.39,219.72z"/>
	<path class="st0" d="M639.6,197.7c0-2,0-4-0.4-5.6h7.21c0,2,0.4,4,0.4,6.01l0,0c0.8-2.4,3.6-6.4,8.41-6.4c0.4,0,0.8,0,1.2,0v7.61
		c-0.8,0-1.6-0.4-2.4-0.4c-3.2,0-6.81,2-6.81,8.01v18.02h-8.01V197.7L639.6,197.7L639.6,197.7z"/>
	<path class="st0" d="M662.82,194.09c2.4-1.2,5.21-2.4,10.41-2.4c10.41,0,12.81,4.8,12.81,13.21v14.41c0,2.4,0.4,4.4,0.4,6.01h-7.21
		c-0.4-1.2-0.4-2.8-0.4-4.4l0,0c-2,2.8-4.4,4.8-9.21,4.8c-5.21,0-10.01-3.6-10.01-9.61c0-8.81,7.21-11.21,17.22-11.21h1.6v-1.2
		c0-3.2-1.6-6.41-6.01-6.41c-4,0-7.61,2-9.21,3.2L662.82,194.09z M678.43,209.31h-0.8c-6.81,0-10.81,1.6-10.81,6.01
		c0,3.2,2,5.2,5.2,5.2c4.8,0,6.41-3.6,6.41-9.21L678.43,209.31L678.43,209.31z"/>
</g>
</svg>
