<?xml version="1.0" encoding="utf-8"?>
<!-- Generator: Adobe Illustrator 25.4.1, SVG Export Plug-In . SVG Version: 6.00 Build 0)  -->
<svg version="1.1" xmlns="http://www.w3.org/2000/svg" xmlns:xlink="http://www.w3.org/1999/xlink" x="0px" y="0px"
	 viewBox="0 0 1254.2 261.5" style="enable-background:new 0 0 1254.2 261.5;" xml:space="preserve">
<style type="text/css">
	.st0{fill:#3A8DDE;}
</style>
<g id="Capa_1">
	<g id="Layer_1">
	</g>
	<g id="PT">
		<g id="Pt_logo_1_">
			<g>
				<path class="st0" d="M132.6,252.1c-66.7,0-121-54.3-121-121s54.3-121,121-121s121,54.3,121,121S199.3,252.1,132.6,252.1z
					 M132.1,83.4c0.2,0,9.8,10.4,9.8,18.6c0,9-7,11.1-9.4,11.1c-0.1,0-0.3,0-0.4,0H132c-0.2,0-0.3,0-0.4,0c-2.4,0-9.4-2.1-9.4-11.1
					C122.3,93.7,132,83.4,132.1,83.4z M41,137.8h11v-20.4h18.5v-8.5H52.1V97.5h19.2V89H41V137.8z M142.1,84.8h11.6L140.3,36h-14.9
					l-14,48.8h10.8l3.1-10.9h14.1L142.1,84.8z M137.3,65.7h-10.1l4.7-21.2h0.8L137.3,65.7z M188.4,113.4c0,14.3,6.6,25.2,20.7,25.2
					c14.1,0,20.8-10.9,20.8-25.2s-6.7-25.2-20.8-25.2C195.1,88.2,188.4,99.1,188.4,113.4z M200.2,113.4c0-9.4,2.3-17,8.9-17
					c6.6,0,9,7.6,9,17s-2.4,17-9,17C202.5,130.4,200.2,122.8,200.2,113.4z M127.5,238.5c0.6-4.7,1.3-12.3,1.3-21.2
					c0-2.4,0-0.8,0-1.5c0-12.5-0.5-16.7-8.8-19.5c-12.9-4.3-18.1-18.6-15.3-36.5L61.5,50.3C39.1,70.1,25,98.9,25,131.1
					C25,188.7,70.5,235.9,127.5,238.5z M132.6,168.7c-17.1-4-23.5-19.6-23.5-33.5L71.3,42.7c-2.5,1.7-4.9,3.5-7.2,5.4
					c8.3,19.6,45.5,108,45.6,108.1c6.6,15.9,18.6,10.6,21.5,23.7c0.7,3.2,0.7,4.6,0.7,4.6h1.3c0,0,0-1.4,0.7-4.6
					c2.9-13.1,14.9-7.9,21.5-23.7c0-0.1,37.3-88.5,45.6-108.1c-2.3-1.9-4.7-3.7-7.2-5.4l-37.7,92.6
					C156.1,149.1,149.8,164.7,132.6,168.7L132.6,168.7z M132.5,140.8c-7.3-1.6-16.3-8.9-17.5-18.1c-0.4-3.5-0.8-4.5-0.3-11.5
					l-33-74.9c-2.7,1.4-5.3,3-7.8,4.6C83.8,63.1,114,131,114.1,131c4.8,10.1,13.2,10.3,16.1,16.3c1.7,3.6,1.9,6.7,1.9,7h1.1
					c0-0.3,0.2-3.4,1.9-7c2.9-6,11.3-6.2,16.1-16.3c0-0.1,30.2-67.9,40.1-90.1c-2.5-1.7-5.1-3.2-7.8-4.6l-33,74.8
					c0.5,7,0.2,8-0.3,11.5c-1.2,9.3-10.2,16.5-17.5,18.1L132.5,140.8L132.5,140.8z M133,128.1l0.5-4.1c2.1-9.5,9-8.3,13.7-17.6
					l0.1-0.1c0.1-0.3,23.5-50.5,33.3-71.5c-14.5-7.2-30.7-11.3-48-11.3c-17.2,0-33.5,4.1-48,11.3c9.8,21,33.1,71.1,33.3,71.5
					c0,0,0,0.1,0.1,0.1c4.7,9.3,11.6,8.1,13.7,17.6l0.5,4.1H133z M240.2,131.1c0-32.1-14.2-61-36.5-80.7l-43.1,109.5
					c2.9,17.9-2.4,32.3-15.3,36.5c-8.3,2.8-8.8,7-8.8,19.5c0,0.7,0-0.9,0,1.5c0,8.9,0.7,16.5,1.3,21.2
					C194.7,235.9,240.2,188.7,240.2,131.1z M59,162.8c0,0,1.6,3.4,2.9,5.8c1.3,2.4,3,5.3,3,5.3l-2.8,1.7c0,0-2.2-3.6-4.1-7.8
					c-0.5,0.3-3.9,2.1-4.5,2.3c0.3,0.6,3.8,7.3,3.8,7.3l-2.9,1.7c0,0-3.5-6.9-3.8-7.5c-0.6,0.3-8,4.1-8,4.1l-1.8-3.5l18-9.3
					L59,162.8z M70.4,181.3l2.5,3l-15.7,13.1l-2.5-3l15.6-13L70.4,181.3z M84.9,195l3.1,2.2l-4,21.7l-3.6-2.1c0,0,0.9-4.4,1-4.8
					c-0.2-0.2-2.3-1.4-4.3-2.8c-2.1-1.5-4-3.1-4.2-3.2c-0.4,0.2-4.3,2.6-4.3,2.6l-3.1-2.6l19.2-10.8L84.9,195z M75.8,204.2
					c0.4,0.3,1.7,1.4,3.1,2.4s2.8,1.9,3.2,2.1c0.2-0.9,1.6-8,1.9-9.4C82.9,200.1,76.7,203.8,75.8,204.2z M97.9,203
					c0,0,3.3,1.7,8,3.3c3.2,1.1,6,2,8.6,2.6l-0.9,3.1c0,0-2.6-0.5-6.7-1.7c-0.2,0.7-5.6,16.1-5.6,16.1l-3.7-1.3
					c0,0,5.4-15.5,5.6-16.1c-3.9-1.5-6.6-2.9-6.6-2.9L97.9,203z M162.6,207.1c1.3,0.7,2.3,2,2.9,3.7c0.2,0.7,0.4,1.5,0.4,2.2
					c0,2.9-2,5.1-5.6,6.2c0,0-1.8,0.6-2.4,0.7c0.2,0.6,2.4,7.6,2.4,7.6l-3.6,0.9l-6.1-19.7l5.4-1.7
					C158.7,206.3,160.9,206.3,162.6,207.1z M155,210.9c0.2,0.6,1.7,5.4,1.9,6c0.8-0.2,2.4-0.7,2.4-0.7c0.5-0.2,1.8-0.7,2.4-1.9
					c0.2-0.4,0.3-0.8,0.3-1.3c0-0.3-0.1-0.7-0.2-1.1c-0.2-0.7-0.7-1.2-1.3-1.6c-1.1-0.6-2.6-0.5-3.5-0.2
					C157,210.2,155.5,210.7,155,210.9z M174.8,198.5l17.8,13l-3.2,2.2c0,0-3.6-2.7-3.9-3c-0.2,0.1-2,1.4-4,2.6
					c-1.9,1.1-3.9,2.1-4.1,2.2c0.1,0.5,0.8,4.8,0.8,4.8l-3.4,1.6l-3-21.8L174.8,198.5z M176.8,212.3c0.5-0.3,1.9-1,3.3-1.8
					c1.2-0.7,2.2-1.4,2.7-1.8c-0.7-0.5-6.3-4.8-7.4-5.6C175.6,204.5,176.7,211.4,176.8,212.3z M195.1,180.6l15.5,13.8l-2.8,3.3
					c0,0-14.5-4.3-16.7-4.8c1.6,1.6,10.7,11.1,10.7,11.1l-2.7,2.5l-14.6-14.8l3.4-3.1c0,0,14,4.2,16.2,4.7
					c-1.6-1.5-11.3-9.9-11.3-9.9L195.1,180.6z M202.2,170.3l17.9,10.4l-1.8,3.2l-18-10.4L202.2,170.3z M209.9,153.1l3.1,1.6
					l-0.3,0.4c-1,1.2-1.5,1.8-1.9,3.2c-0.2,0.6-0.5,1.8,0,2.7c0.2,0.5,0.6,0.8,1.2,1c1.4,0.5,2.5-0.7,3.9-2.1c1.9-1.9,4.2-4.3,8-3
					c3.9,1.3,5.2,4.7,3.6,9.4c-0.5,1.4-1.4,2.6-2.2,3.8l-0.2,0.2l-3.2-1.5l0.3-0.4c0.4-0.4,1.7-2,2.2-3.5c0.5-1.4,0.4-3.7-1.6-4.3
					c-1.7-0.6-3,0.7-4.5,2.3c-1.8,1.9-3.9,4.1-7.3,2.9c-1.5-0.5-2.6-1.5-3.3-2.7c-0.8-1.6-0.8-3.6-0.1-5.6c0.5-1.4,1.2-2.9,2.1-4
					L209.9,153.1z"/>
			</g>
			<g>
				<path class="st0" d="M299.2,44.6c1.1-3.2,2.6-5.9,4.4-8s4-3.6,6.4-4.6c2.4-1,4.9-1.5,7.5-1.5s5.1,0.5,7.5,1.5
					c2.4,1,4.5,2.5,6.4,4.6c1.8,2.1,3.3,4.7,4.4,8c1.1,3.2,1.6,7.1,1.6,11.6s-0.5,8.3-1.6,11.6c-1.1,3.2-2.6,5.9-4.4,8
					s-4,3.6-6.4,4.6s-4.9,1.5-7.5,1.5s-5.1-0.5-7.5-1.5s-4.5-2.5-6.4-4.6c-1.8-2.1-3.3-4.7-4.4-8c-1.1-3.2-1.6-7.1-1.6-11.6
					S298.1,47.8,299.2,44.6z M307.8,64.9c0.5,2.4,1.3,4.3,2.2,5.8c0.9,1.5,2,2.5,3.3,3.2s2.6,1,4.1,1c1.4,0,2.8-0.3,4.1-1
					c1.3-0.7,2.4-1.7,3.3-3.2s1.7-3.4,2.2-5.8s0.8-5.3,0.8-8.7s-0.3-6.3-0.8-8.7s-1.3-4.3-2.2-5.8c-0.9-1.5-2-2.5-3.3-3.2
					s-2.6-1-4.1-1c-1.4,0-2.8,0.3-4.1,1c-1.3,0.7-2.4,1.7-3.3,3.2s-1.7,3.4-2.2,5.8c-0.5,2.4-0.8,5.3-0.8,8.7
					C307,59.6,307.3,62.5,307.8,64.9z"/>
				<path class="st0" d="M344.9,50.4c0-1.1,0-2.2-0.1-3.3c0-1-0.1-2-0.2-2.8h8c0,1.1,0.1,2.2,0.2,3.4c0.1,1.1,0.1,2.3,0.1,3.4h0.1
					c0.3-0.7,0.7-1.5,1.1-2.4c0.5-0.9,1.1-1.6,1.9-2.4c0.8-0.7,1.7-1.3,2.7-1.8s2.3-0.8,3.6-0.8c0.3,0,0.5,0,0.8,0.1
					c0.2,0,0.5,0.1,0.7,0.1v8.3c-0.9-0.2-1.7-0.4-2.5-0.4c-0.9,0-1.8,0.2-2.7,0.5c-0.9,0.3-1.7,0.8-2.5,1.5
					c-0.7,0.7-1.3,1.6-1.8,2.8s-0.7,2.6-0.7,4.3v20.2h-8.9V50.4H344.9z"/>
				<path class="st0" d="M370.2,86.9c1,0.6,2.5,1.2,4.5,2c1.9,0.8,4.1,1.1,6.4,1.1c2.1,0,3.8-0.3,5-1c1.3-0.7,2.2-1.5,2.9-2.6
					c0.7-1.1,1.2-2.3,1.4-3.7c0.2-1.4,0.4-2.8,0.4-4.3v-3.5h-0.1c-0.4,0.7-0.8,1.4-1.3,2.2c-0.5,0.7-1.1,1.4-1.9,2s-1.7,1.1-2.8,1.5
					c-1.1,0.4-2.3,0.6-3.8,0.6c-1.3,0-2.7-0.3-4.2-0.8s-2.9-1.4-4.2-2.8c-1.3-1.4-2.4-3.2-3.2-5.6c-0.9-2.4-1.3-5.4-1.3-9.2
					c0-2.5,0.2-4.9,0.7-7.3c0.5-2.3,1.3-4.3,2.3-6.1c1.1-1.7,2.4-3.1,4.1-4.2c1.7-1,3.7-1.6,6.2-1.6c1.3,0,2.5,0.2,3.5,0.5
					c1,0.4,1.9,0.8,2.6,1.4c0.8,0.6,1.4,1.2,2,2s1.1,1.5,1.6,2.4h0.3c0-1,0-1.9,0.1-2.9s0.1-1.9,0.2-2.9h8c-0.1,1-0.2,1.9-0.2,2.9
					s-0.1,1.9-0.1,2.9v27.2c0,2.9-0.3,5.5-0.8,7.9s-1.4,4.5-2.7,6.3c-1.3,1.7-3,3.1-5.2,4.1s-5,1.5-8.4,1.5c-3,0-5.5-0.3-7.7-0.9
					s-3.8-1-4.9-1.4L370.2,86.9z M377.7,67.9c0.3,1.6,0.7,2.8,1.3,3.8c0.5,1,1.2,1.7,1.9,2.2c0.7,0.5,1.4,0.7,2.2,0.7
					c2.8,0,4.8-1,6-3s1.8-5.1,1.8-9.3c0-3.9-0.7-6.8-2-8.8s-3-3-5.2-3c-2.3,0-4,1.1-5,3.1c-1,2.1-1.5,5-1.5,8.7
					C377.2,64.5,377.4,66.3,377.7,67.9z"/>
				<path class="st0" d="M409.3,46.5c1.2-0.6,2.8-1.2,4.6-1.8c1.9-0.6,4.2-0.9,7-0.9c2.9,0,5.2,0.3,7,1s3.3,1.6,4.3,2.9
					c1,1.3,1.7,2.9,2.1,4.7s0.6,3.9,0.6,6.2v16.1c0,1.3,0.1,2.6,0.2,3.7s0.2,2.1,0.3,2.8h-8c-0.2-0.7-0.4-1.5-0.4-2.4
					s-0.1-1.7-0.1-2.6h-0.1c-1.1,1.5-2.4,2.8-4,3.9s-3.7,1.6-6.3,1.6c-1.4,0-2.8-0.2-4.1-0.7c-1.3-0.5-2.5-1.2-3.5-2.1
					s-1.8-2.1-2.4-3.4s-0.9-2.9-0.9-4.6c0-2.5,0.5-4.5,1.5-6.2c1-1.6,2.3-2.9,4-3.9s3.8-1.6,6.1-2c2.4-0.4,4.9-0.5,7.8-0.5h1.8v-1.4
					c0-0.9-0.1-1.8-0.4-2.6c-0.2-0.9-0.6-1.6-1.2-2.3c-0.5-0.6-1.3-1.2-2.1-1.5c-0.9-0.4-1.9-0.6-3.2-0.6c-1.1,0-2.2,0.1-3.2,0.4
					c-1,0.2-2,0.5-2.9,0.9s-1.7,0.8-2.4,1.2c-0.7,0.4-1.3,0.8-1.7,1.1L409.3,46.5z M426.7,63.1H426c-3.8,0-6.8,0.5-8.9,1.5
					s-3.2,2.8-3.2,5.5c0,1.7,0.5,3,1.5,4.1c1,1,2.4,1.6,4.1,1.6c2.7,0,4.5-0.9,5.6-2.8s1.6-4.4,1.6-7.7V63.1z"/>
				<path class="st0" d="M443.3,50.4c0-1.1,0-2.2-0.1-3.3c0-1-0.1-2-0.2-2.8h8.3c0,1,0.1,1.9,0.2,2.8c0.1,0.9,0.1,1.9,0.1,2.8h0.2
					h-0.1c0.3-0.6,0.8-1.2,1.3-1.9s1.1-1.4,1.9-2s1.7-1.2,2.8-1.6c1.1-0.4,2.4-0.6,3.9-0.6c2.1,0,3.8,0.4,5.2,1.1
					c1.4,0.7,2.5,1.7,3.3,3s1.4,2.7,1.8,4.4c0.4,1.6,0.5,3.4,0.5,5.3v23.7h-8.9V59.1c0-2.9-0.4-4.9-1.2-6.2
					c-0.8-1.2-2.1-1.9-3.9-1.9c-1.1,0-2.1,0.2-2.9,0.7s-1.5,1.1-2,1.9c-0.5,0.8-0.9,1.7-1.1,2.8c-0.2,1-0.3,2.2-0.3,3.4v21.5h-8.9
					V50.4H443.3z"/>
				<path class="st0" d="M481.1,28.7h9.2v8.7h-9.2V28.7z M481.3,44.3h8.9v36.8h-8.9V44.3z"/>
				<path class="st0" d="M497,73.5L512.7,51h-15.2v-6.7h24.1v7.6l-15.5,22.5h16v6.7H497V73.5z"/>
				<path class="st0" d="M529.9,46.5c1.2-0.6,2.8-1.2,4.6-1.8c1.9-0.6,4.2-0.9,7-0.9c2.9,0,5.2,0.3,7,1s3.3,1.6,4.3,2.9
					c1,1.3,1.7,2.9,2.1,4.7c0.4,1.8,0.6,3.9,0.6,6.2v16.1c0,1.3,0.1,2.6,0.2,3.7c0.1,1.1,0.2,2.1,0.3,2.8h-8
					c-0.2-0.7-0.4-1.5-0.4-2.4s-0.1-1.7-0.1-2.6h-0.1c-1.1,1.5-2.4,2.8-4,3.9s-3.7,1.6-6.3,1.6c-1.4,0-2.8-0.2-4.1-0.7
					s-2.5-1.2-3.5-2.1s-1.8-2.1-2.4-3.4c-0.6-1.3-0.9-2.9-0.9-4.6c0-2.5,0.5-4.5,1.5-6.2c1-1.6,2.3-2.9,4-3.9s3.8-1.6,6.1-2
					c2.4-0.4,4.9-0.5,7.8-0.5h1.8v-1.4c0-0.9-0.1-1.8-0.4-2.6c-0.2-0.9-0.6-1.6-1.2-2.3c-0.5-0.6-1.3-1.2-2.1-1.5
					c-0.9-0.4-1.9-0.6-3.2-0.6c-1.1,0-2.2,0.1-3.2,0.4c-1,0.2-2,0.5-2.9,0.9s-1.7,0.8-2.4,1.2s-1.3,0.8-1.7,1.1L529.9,46.5z
					 M547.3,63.1h-0.8c-3.8,0-6.8,0.5-8.9,1.5c-2.1,1-3.2,2.8-3.2,5.5c0,1.7,0.5,3,1.5,4.1c1,1,2.4,1.6,4.1,1.6
					c2.7,0,4.5-0.9,5.6-2.8s1.6-4.4,1.6-7.7v-2.2H547.3z"/>
				<path class="st0" d="M588.9,80.2c-1,0.4-2.3,0.7-3.8,1s-3.1,0.5-4.9,0.5h-0.4l-1.3,3.9c0.4-0.1,0.8-0.2,1.2-0.3
					c0.4-0.1,1-0.1,1.6-0.1c2,0,3.5,0.5,4.6,1.5s1.6,2.3,1.6,3.8c0,1.1-0.3,2.1-0.8,2.9s-1.1,1.5-1.9,2c-0.8,0.5-1.6,1-2.6,1.2
					c-1,0.3-1.9,0.4-2.7,0.4c-1.5,0-3-0.1-4.4-0.4s-2.4-0.6-3.1-1l1.1-2.9c0.7,0.2,1.5,0.5,2.2,0.7c0.8,0.2,1.7,0.3,2.8,0.3
					c1.2,0,2.1-0.3,2.8-0.8c0.6-0.5,1-1.3,1-2.1c0-0.8-0.3-1.5-0.9-1.9c-0.6-0.5-1.4-0.7-2.4-0.7c-0.7,0-1.2,0-1.6,0.1
					c-0.4,0.1-0.8,0.2-1.1,0.4l-1.3-1.2l2.1-6c-2.4-0.4-4.5-1.1-6.3-2.3c-1.7-1.1-3.2-2.5-4.3-4.2s-1.9-3.5-2.5-5.6
					c-0.5-2.1-0.8-4.3-0.8-6.6c0-2.6,0.3-5.1,1-7.4c0.7-2.3,1.8-4.3,3.2-6c1.5-1.7,3.3-3.1,5.5-4.1s4.9-1.5,8-1.5
					c1.4,0,2.8,0.2,4.3,0.5s2.6,0.7,3.4,1l-0.5,7c-0.8-0.4-1.7-0.8-2.8-1.2c-1-0.4-2.2-0.6-3.4-0.6c-3.4,0-5.8,1.1-7.4,3.2
					c-1.5,2.1-2.3,5.2-2.3,9.2c0,1.7,0.2,3.3,0.6,4.8c0.4,1.5,1,2.8,1.9,3.9c0.8,1.1,1.9,2,3.1,2.6c1.3,0.6,2.8,0.9,4.5,0.9
					c1.1,0,2.3-0.2,3.5-0.6s2.2-0.8,2.8-1.2L588.9,80.2z"/>
				<path class="st0" d="M596.1,46.5c1.2-0.6,2.8-1.2,4.6-1.8c1.9-0.6,4.2-0.9,7-0.9c2.9,0,5.2,0.3,7,1s3.3,1.6,4.3,2.9
					c1,1.3,1.7,2.9,2.1,4.7c0.4,1.8,0.6,3.9,0.6,6.2v16.1c0,1.3,0.1,2.6,0.2,3.7c0.1,1.1,0.2,2.1,0.3,2.8h-8
					c-0.2-0.7-0.4-1.5-0.4-2.4s-0.1-1.7-0.1-2.6h-0.1c-1.1,1.5-2.4,2.8-4,3.9s-3.7,1.6-6.3,1.6c-1.4,0-2.8-0.2-4.1-0.7
					s-2.5-1.2-3.5-2.1s-1.8-2.1-2.4-3.4c-0.6-1.3-0.9-2.9-0.9-4.6c0-2.5,0.5-4.5,1.5-6.2c1-1.6,2.3-2.9,4-3.9s3.8-1.6,6.1-2
					c2.4-0.4,4.9-0.5,7.8-0.5h1.8v-1.4c0-0.9-0.1-1.8-0.4-2.6c-0.2-0.9-0.6-1.6-1.2-2.3c-0.5-0.6-1.3-1.2-2.1-1.5
					c-0.9-0.4-1.9-0.6-3.2-0.6c-1.1,0-2.2,0.1-3.2,0.4c-1,0.2-2,0.5-2.9,0.9s-1.7,0.8-2.4,1.2s-1.3,0.8-1.7,1.1L596.1,46.5z
					 M597.5,39.5c0-0.6,0.1-1.4,0.3-2.3c0.2-0.9,0.5-1.8,1-2.7s1.2-1.6,2.1-2.3c0.9-0.6,2-1,3.3-1c0.8,0,1.6,0.1,2.4,0.4
					c0.8,0.3,1.5,0.5,2.2,0.8c0.7,0.3,1.3,0.6,2,0.8c0.6,0.3,1.2,0.4,1.7,0.4c0.7,0,1.2-0.3,1.6-0.9c0.3-0.6,0.5-1.2,0.5-1.9h4.4
					c0,0.5-0.1,1.3-0.3,2.2c-0.2,0.9-0.5,1.9-1,2.8c-0.5,0.9-1.2,1.7-2,2.4c-0.9,0.7-2,1-3.3,1c-0.7,0-1.4-0.1-2.1-0.4
					c-0.7-0.3-1.3-0.5-2-0.8s-1.3-0.6-2-0.8c-0.7-0.3-1.3-0.4-1.9-0.4c-0.9,0-1.6,0.3-2,0.8s-0.6,1.2-0.6,2L597.5,39.5L597.5,39.5z
					 M613.6,63.1h-0.8c-3.8,0-6.8,0.5-8.9,1.5c-2.1,1-3.2,2.8-3.2,5.5c0,1.7,0.5,3,1.5,4.1c1,1,2.4,1.6,4.1,1.6
					c2.7,0,4.5-0.9,5.6-2.8s1.6-4.4,1.6-7.7v-2.2H613.6z"/>
				<path class="st0" d="M630.6,53.4c1-2.4,2.3-4.4,3.8-5.8c1.6-1.4,3.3-2.4,5.3-3c1.9-0.6,3.8-0.9,5.7-0.9s3.8,0.3,5.7,0.9
					c1.9,0.6,3.7,1.6,5.2,3s2.8,3.4,3.8,5.8c1,2.4,1.5,5.5,1.5,9.3c0,3.9-0.5,7-1.5,9.5s-2.2,4.4-3.8,5.8c-1.5,1.4-3.3,2.4-5.2,2.9
					s-3.8,0.8-5.7,0.8s-3.8-0.3-5.7-0.8s-3.7-1.5-5.3-2.9s-2.8-3.4-3.8-5.8c-1-2.5-1.5-5.6-1.5-9.5
					C629.1,58.9,629.6,55.8,630.6,53.4z M638.5,67.3c0.2,1.5,0.6,2.9,1.1,4.1s1.3,2.2,2.2,2.9c0.9,0.7,2.1,1.1,3.5,1.1
					s2.6-0.4,3.5-1.1s1.6-1.7,2.1-2.9c0.5-1.2,0.9-2.6,1.1-4.1c0.2-1.5,0.3-3.1,0.3-4.6s-0.1-3.1-0.3-4.6s-0.5-2.9-1.1-4.1
					c-0.5-1.2-1.2-2.2-2.1-2.9c-0.9-0.7-2.1-1.1-3.5-1.1s-2.6,0.4-3.5,1.1c-0.9,0.7-1.6,1.7-2.2,2.9c-0.5,1.2-0.9,2.6-1.1,4.1
					c-0.2,1.5-0.3,3.1-0.3,4.6C638.3,64.2,638.4,65.8,638.5,67.3z"/>
				<path class="st0" d="M717.4,27.5v47.4c0,1.3,0,2.6,0.1,3.6c0,1.1,0.1,2,0.2,2.6h-8.3c-0.1-0.5-0.2-1.3-0.2-2.3s-0.1-2.2-0.1-3.4
					h-0.2c-0.4,0.8-0.8,1.6-1.4,2.3c-0.5,0.7-1.2,1.4-1.9,2c-0.8,0.6-1.7,1.1-2.8,1.4c-1.1,0.4-2.3,0.5-3.8,0.5
					c-2.3,0-4.3-0.5-5.9-1.5c-1.6-1-3-2.4-4-4.1s-1.8-3.7-2.3-6s-0.8-4.7-0.8-7.3c0-6.1,1.1-10.7,3.4-14.1c2.2-3.3,5.4-5,9.4-5
					c1.3,0,2.5,0.2,3.5,0.5s1.9,0.8,2.7,1.4c0.8,0.6,1.4,1.2,2,1.9c0.5,0.7,1,1.4,1.3,2.1h0.1v-22H717.4z M696.3,72
					c0.9,2.1,2.6,3.2,5.2,3.2c1.3,0,2.4-0.3,3.3-1c0.9-0.7,1.6-1.6,2.2-2.7c0.5-1.1,0.9-2.5,1.2-4c0.2-1.5,0.4-3.1,0.4-4.9
					c0-1.8-0.1-3.4-0.4-4.9c-0.3-1.5-0.7-2.8-1.2-3.9c-0.5-1.1-1.3-2-2.1-2.6c-0.9-0.6-1.9-0.9-3.1-0.9c-2.5,0-4.2,1.1-5.2,3.3
					s-1.5,5.2-1.5,8.8C695,66.7,695.4,69.9,696.3,72z"/>
				<path class="st0" d="M727.3,46.5c1.2-0.6,2.8-1.2,4.6-1.8c1.9-0.6,4.2-0.9,7-0.9c2.9,0,5.2,0.3,7,1s3.3,1.6,4.3,2.9
					c1,1.3,1.7,2.9,2.1,4.7c0.4,1.8,0.6,3.9,0.6,6.2v16.1c0,1.3,0.1,2.6,0.2,3.7c0.1,1.1,0.2,2.1,0.3,2.8h-8
					c-0.2-0.7-0.4-1.5-0.4-2.4s-0.1-1.7-0.1-2.6h-0.1c-1.1,1.5-2.4,2.8-4,3.9s-3.7,1.6-6.3,1.6c-1.4,0-2.8-0.2-4.1-0.7
					s-2.5-1.2-3.5-2.1s-1.8-2.1-2.4-3.4c-0.6-1.3-0.9-2.9-0.9-4.6c0-2.5,0.5-4.5,1.5-6.2c1-1.6,2.3-2.9,4-3.9s3.8-1.6,6.1-2
					c2.4-0.4,4.9-0.5,7.8-0.5h1.8v-1.4c0-0.9-0.1-1.8-0.4-2.6c-0.2-0.9-0.6-1.6-1.2-2.3c-0.5-0.6-1.3-1.2-2.1-1.5
					c-0.9-0.4-1.9-0.6-3.2-0.6c-1.1,0-2.2,0.1-3.2,0.4c-1,0.2-2,0.5-2.9,0.9s-1.7,0.8-2.4,1.2s-1.3,0.8-1.7,1.1L727.3,46.5z
					 M744.8,63.1H744c-3.8,0-6.8,0.5-8.9,1.5c-2.1,1-3.2,2.8-3.2,5.5c0,1.7,0.5,3,1.5,4.1c1,1,2.4,1.6,4.1,1.6
					c2.7,0,4.5-0.9,5.6-2.8s1.6-4.4,1.6-7.7v-2.2H744.8z"/>
				<path class="st0" d="M760.3,72.6c0.3,0.1,0.8,0.3,1.4,0.6c0.6,0.3,1.3,0.5,2.1,0.8s1.7,0.5,2.6,0.7c1,0.2,2,0.3,3,0.3
					c1.6,0,3-0.3,4.1-0.8s1.6-1.5,1.6-2.9c0-0.7-0.3-1.4-0.8-2.1s-1.6-1.5-3.2-2.5l-3.6-2.1c-1-0.6-1.9-1.2-2.8-1.8
					c-0.9-0.6-1.7-1.3-2.5-2.1s-1.4-1.7-1.8-2.8c-0.5-1.1-0.7-2.3-0.7-3.8c0-1.3,0.3-2.6,0.9-3.8c0.6-1.2,1.4-2.3,2.5-3.3
					s2.4-1.8,4-2.4c1.6-0.6,3.3-0.9,5.3-0.9c2.4,0,4.4,0.2,6.1,0.6c1.7,0.4,2.7,0.7,3.1,0.9l-0.5,6.9c-1.1-0.4-2.3-0.8-3.5-1.1
					s-2.7-0.5-4.3-0.5c-1.8,0-3.1,0.3-3.9,1c-0.8,0.6-1.2,1.5-1.2,2.6c0,1,0.4,1.8,1.1,2.5c0.7,0.7,1.8,1.4,3,2.2l4.4,2.8
					c1.1,0.7,2.1,1.4,3,2.1c0.9,0.7,1.6,1.4,2.1,2.1c0.6,0.7,1,1.5,1.3,2.3s0.4,1.8,0.4,2.8c0,1.7-0.3,3.2-1,4.6
					c-0.7,1.3-1.6,2.5-2.9,3.4c-1.2,0.9-2.7,1.6-4.3,2.1c-1.7,0.5-3.5,0.8-5.5,0.8c-2.3,0-4.3-0.2-6.1-0.6s-3.2-0.8-4.1-1.2
					L760.3,72.6z"/>
				<path class="st0" d="M810.2,31.2h10.9l16.6,39.2h0.1V31.2h8.3v49.9h-10.9l-16.5-38.9h-0.1v38.9h-8.3L810.2,31.2L810.2,31.2z"/>
				<path class="st0" d="M857.1,46.5c1.2-0.6,2.8-1.2,4.6-1.8c1.9-0.6,4.2-0.9,7-0.9c2.9,0,5.2,0.3,7,1s3.3,1.6,4.3,2.9
					c1,1.3,1.7,2.9,2.1,4.7c0.4,1.8,0.6,3.9,0.6,6.2v16.1c0,1.3,0.1,2.6,0.2,3.7c0.1,1.1,0.2,2.1,0.3,2.8h-8
					c-0.2-0.7-0.4-1.5-0.4-2.4s-0.1-1.7-0.1-2.6h-0.1c-1.1,1.5-2.4,2.8-4,3.9s-3.7,1.6-6.3,1.6c-1.4,0-2.8-0.2-4.1-0.7
					s-2.5-1.2-3.5-2.1s-1.8-2.1-2.4-3.4c-0.6-1.3-0.9-2.9-0.9-4.6c0-2.5,0.5-4.5,1.5-6.2c1-1.6,2.3-2.9,4-3.9s3.8-1.6,6.1-2
					c2.4-0.4,4.9-0.5,7.8-0.5h1.8v-1.4c0-0.9-0.1-1.8-0.4-2.6c-0.2-0.9-0.6-1.6-1.2-2.3c-0.5-0.6-1.3-1.2-2.1-1.5
					c-0.9-0.4-1.9-0.6-3.2-0.6c-1.1,0-2.2,0.1-3.2,0.4c-1,0.2-2,0.5-2.9,0.9s-1.7,0.8-2.4,1.2s-1.3,0.8-1.7,1.1L857.1,46.5z
					 M874.6,63.1h-0.8c-3.8,0-6.8,0.5-8.9,1.5c-2.1,1-3.2,2.8-3.2,5.5c0,1.7,0.5,3,1.5,4.1c1,1,2.4,1.6,4.1,1.6
					c2.7,0,4.5-0.9,5.6-2.8s1.6-4.4,1.6-7.7v-2.2H874.6z"/>
				<path class="st0" d="M916.2,80.2c-1,0.4-2.3,0.7-3.8,1s-3.1,0.5-4.9,0.5H907l-1.3,3.9c0.4-0.1,0.8-0.2,1.2-0.3
					c0.4-0.1,1-0.1,1.6-0.1c2,0,3.5,0.5,4.6,1.5s1.6,2.3,1.6,3.8c0,1.1-0.3,2.1-0.8,2.9s-1.1,1.5-1.9,2c-0.8,0.5-1.6,1-2.6,1.2
					c-1,0.3-1.9,0.4-2.7,0.4c-1.5,0-3-0.1-4.4-0.4s-2.4-0.6-3.1-1l1.1-2.9c0.7,0.2,1.5,0.5,2.2,0.7c0.8,0.2,1.7,0.3,2.8,0.3
					c1.2,0,2.1-0.3,2.8-0.8c0.6-0.5,1-1.3,1-2.1c0-0.8-0.3-1.5-0.9-1.9c-0.6-0.5-1.4-0.7-2.4-0.7c-0.7,0-1.2,0-1.6,0.1
					c-0.4,0.1-0.8,0.2-1.1,0.4l-1.3-1.2l2.1-6c-2.4-0.4-4.5-1.1-6.3-2.3c-1.7-1.1-3.2-2.5-4.3-4.2s-1.9-3.5-2.5-5.6
					c-0.5-2.1-0.8-4.3-0.8-6.6c0-2.6,0.3-5.1,1-7.4c0.7-2.3,1.8-4.3,3.2-6c1.5-1.7,3.3-3.1,5.5-4.1s4.9-1.5,8-1.5
					c1.4,0,2.8,0.2,4.3,0.5s2.6,0.7,3.4,1l-0.5,7c-0.8-0.4-1.7-0.8-2.8-1.2c-1-0.4-2.2-0.6-3.4-0.6c-3.4,0-5.8,1.1-7.4,3.2
					c-1.5,2.1-2.3,5.2-2.3,9.2c0,1.7,0.2,3.3,0.6,4.8c0.4,1.5,1,2.8,1.9,3.9c0.8,1.1,1.9,2,3.1,2.6c1.3,0.6,2.8,0.9,4.5,0.9
					c1.1,0,2.3-0.2,3.5-0.6s2.2-0.8,2.8-1.2L916.2,80.2z"/>
				<path class="st0" d="M922.1,53.4c1-2.4,2.3-4.4,3.8-5.8c1.6-1.4,3.3-2.4,5.3-3c1.9-0.6,3.8-0.9,5.7-0.9s3.8,0.3,5.7,0.9
					c1.9,0.6,3.7,1.6,5.2,3s2.8,3.4,3.8,5.8c1,2.4,1.5,5.5,1.5,9.3c0,3.9-0.5,7-1.5,9.5s-2.2,4.4-3.8,5.8c-1.5,1.4-3.3,2.4-5.2,2.9
					s-3.8,0.8-5.7,0.8s-3.8-0.3-5.7-0.8s-3.7-1.5-5.3-2.9s-2.8-3.4-3.8-5.8c-1-2.5-1.5-5.6-1.5-9.5
					C920.6,58.9,921.1,55.8,922.1,53.4z M926.1,39.5c0-0.6,0.1-1.4,0.3-2.3c0.2-0.9,0.5-1.8,1-2.7s1.2-1.6,2.1-2.3
					c0.9-0.6,2-1,3.3-1c0.8,0,1.6,0.1,2.4,0.4c0.8,0.3,1.5,0.5,2.2,0.8c0.7,0.3,1.3,0.6,2,0.8c0.6,0.3,1.2,0.4,1.7,0.4
					c0.7,0,1.2-0.3,1.6-0.9c0.3-0.6,0.5-1.2,0.5-1.9h4.4c0,0.5-0.1,1.3-0.3,2.2c-0.2,0.9-0.5,1.9-1,2.8c-0.5,0.9-1.2,1.7-2,2.4
					c-0.9,0.7-2,1-3.3,1c-0.7,0-1.4-0.1-2.1-0.4c-0.7-0.3-1.3-0.5-2-0.8s-1.3-0.6-2-0.8c-0.7-0.3-1.3-0.4-1.9-0.4
					c-0.9,0-1.6,0.3-2,0.8s-0.6,1.2-0.6,2L926.1,39.5L926.1,39.5z M930,67.3c0.2,1.5,0.6,2.9,1.1,4.1s1.3,2.2,2.2,2.9
					c0.9,0.7,2.1,1.1,3.5,1.1s2.6-0.4,3.5-1.1s1.6-1.7,2.1-2.9c0.5-1.2,0.9-2.6,1.1-4.1c0.2-1.5,0.3-3.1,0.3-4.6s-0.1-3.1-0.3-4.6
					s-0.5-2.9-1.1-4.1c-0.5-1.2-1.2-2.2-2.1-2.9c-0.9-0.7-2.1-1.1-3.5-1.1s-2.6,0.4-3.5,1.1c-0.9,0.7-1.6,1.7-2.2,2.9
					c-0.5,1.2-0.9,2.6-1.1,4.1c-0.2,1.5-0.3,3.1-0.3,4.6C929.7,64.2,929.8,65.8,930,67.3z"/>
				<path class="st0" d="M987,79.4c-1,0.4-2.4,0.9-4.2,1.5c-1.9,0.6-4.1,0.9-6.8,0.9c-3,0-5.5-0.5-7.7-1.5c-2.1-1-3.9-2.3-5.3-4
					c-1.4-1.7-2.4-3.6-3.1-5.9c-0.7-2.2-1-4.6-1-7.1c0-2.8,0.3-5.3,1-7.7s1.7-4.4,3-6.2s2.9-3.1,4.8-4.1c1.9-1,4-1.5,6.3-1.5
					c2,0,3.9,0.3,5.7,1c1.8,0.6,3.3,1.7,4.7,3.3c1.4,1.5,2.4,3.5,3.2,6s1.2,5.6,1.2,9.4v1.7h-21.3c0,3.1,0.7,5.6,2.1,7.4
					c1.4,1.8,3.8,2.7,7.3,2.7c2.7,0,4.8-0.3,6.3-1c1.5-0.6,2.6-1.3,3.4-1.9L987,79.4z M980.3,59.6c0-6.5-2.1-9.8-6.2-9.8
					c-1.1,0-2.1,0.3-3,0.9c-0.8,0.6-1.5,1.3-2.1,2.2c-0.5,0.9-0.9,2-1.2,3.1c-0.2,1.2-0.4,2.4-0.4,3.6H980.3z"/>
				<path class="st0" d="M994.8,72.6c0.3,0.1,0.8,0.3,1.4,0.6c0.6,0.3,1.3,0.5,2.1,0.8s1.7,0.5,2.6,0.7c1,0.2,2,0.3,3,0.3
					c1.6,0,3-0.3,4.1-0.8s1.6-1.5,1.6-2.9c0-0.7-0.3-1.4-0.8-2.1s-1.6-1.5-3.2-2.5l-3.6-2.1c-1-0.6-1.9-1.2-2.8-1.8
					c-0.9-0.6-1.7-1.3-2.5-2.1s-1.4-1.7-1.8-2.8c-0.5-1.1-0.7-2.3-0.7-3.8c0-1.3,0.3-2.6,0.9-3.8c0.6-1.2,1.4-2.3,2.5-3.3
					s2.4-1.8,4-2.4c1.6-0.6,3.3-0.9,5.3-0.9c2.4,0,4.4,0.2,6.1,0.6c1.7,0.4,2.7,0.7,3.1,0.9l-0.5,6.9c-1.1-0.4-2.3-0.8-3.5-1.1
					s-2.7-0.5-4.3-0.5c-1.8,0-3.1,0.3-3.9,1s-1.2,1.5-1.2,2.6c0,1,0.4,1.8,1.1,2.5c0.7,0.7,1.8,1.4,3,2.2l4.4,2.8
					c1.1,0.7,2.1,1.4,3,2.1c0.9,0.7,1.6,1.4,2.1,2.1c0.6,0.7,1,1.5,1.3,2.3s0.4,1.8,0.4,2.8c0,1.7-0.3,3.2-1,4.6
					c-0.7,1.3-1.6,2.5-2.9,3.4c-1.2,0.9-2.7,1.6-4.3,2.1c-1.7,0.5-3.5,0.8-5.5,0.8c-2.3,0-4.3-0.2-6.1-0.6s-3.2-0.8-4.1-1.2
					L994.8,72.6z"/>
				<path class="st0" d="M1053.5,31.2v32.3c0,4.1,0.6,7,1.9,8.6s3.3,2.4,5.9,2.4s4.6-0.8,5.9-2.4s1.9-4.5,1.9-8.6V31.2h9.2v32.3
					c0,3.3-0.4,6.1-1.3,8.4s-2.1,4.2-3.6,5.7c-1.6,1.5-3.4,2.6-5.4,3.2c-2.1,0.7-4.2,1-6.6,1s-4.6-0.3-6.7-1s-3.9-1.7-5.4-3.2
					s-2.8-3.4-3.6-5.7c-0.9-2.3-1.3-5.1-1.3-8.4V31.2H1053.5z"/>
				<path class="st0" d="M1087.2,50.4c0-1.1,0-2.2-0.1-3.3c0-1-0.1-2-0.2-2.8h8.3c0,1,0.1,1.9,0.2,2.8c0.1,0.9,0.1,1.9,0.1,2.8h0.2
					h-0.1c0.3-0.6,0.8-1.2,1.3-1.9s1.1-1.4,1.9-2s1.7-1.2,2.8-1.6c1.1-0.4,2.4-0.6,3.9-0.6c2.1,0,3.8,0.4,5.2,1.1
					c1.4,0.7,2.5,1.7,3.3,3s1.4,2.7,1.8,4.4c0.4,1.6,0.5,3.4,0.5,5.3v23.7h-8.9V59.1c0-2.9-0.4-4.9-1.2-6.2
					c-0.8-1.2-2.1-1.9-3.9-1.9c-1.1,0-2.1,0.2-2.9,0.7s-1.5,1.1-2,1.9c-0.5,0.8-0.9,1.7-1.1,2.8c-0.2,1-0.3,2.2-0.3,3.4v21.5h-8.9
					L1087.2,50.4L1087.2,50.4z"/>
				<path class="st0" d="M1125,28.7h9.2v8.7h-9.2V28.7z M1125.2,44.3h8.9v36.8h-8.9V44.3z"/>
				<path class="st0" d="M1173.2,27.5v47.4c0,1.3,0,2.6,0.1,3.6c0,1.1,0.1,2,0.2,2.6h-8.3c-0.1-0.5-0.2-1.3-0.2-2.3
					s-0.1-2.2-0.1-3.4h-0.2c-0.4,0.8-0.8,1.6-1.4,2.3c-0.5,0.7-1.2,1.4-1.9,2c-0.8,0.6-1.7,1.1-2.8,1.4c-1.1,0.4-2.3,0.5-3.8,0.5
					c-2.3,0-4.3-0.5-5.9-1.5s-3-2.4-4-4.1s-1.8-3.7-2.3-6s-0.8-4.7-0.8-7.3c0-6.1,1.1-10.7,3.4-14.1c2.2-3.3,5.4-5,9.4-5
					c1.3,0,2.5,0.2,3.5,0.5s1.9,0.8,2.7,1.4c0.8,0.6,1.4,1.2,2,1.9c0.5,0.7,1,1.4,1.3,2.1h0.1v-22H1173.2z M1152.1,72
					c0.9,2.1,2.6,3.2,5.2,3.2c1.3,0,2.4-0.3,3.3-1s1.6-1.6,2.2-2.7c0.5-1.1,0.9-2.5,1.2-4c0.2-1.5,0.4-3.1,0.4-4.9
					c0-1.8-0.1-3.4-0.4-4.9s-0.7-2.8-1.2-3.9c-0.5-1.1-1.3-2-2.1-2.6c-0.9-0.6-1.9-0.9-3.1-0.9c-2.5,0-4.2,1.1-5.2,3.3
					s-1.5,5.2-1.5,8.8C1150.8,66.7,1151.2,69.9,1152.1,72z"/>
				<path class="st0" d="M1183.1,46.5c1.2-0.6,2.8-1.2,4.6-1.8c1.9-0.6,4.2-0.9,7-0.9c2.9,0,5.2,0.3,7,1s3.3,1.6,4.3,2.9
					c1,1.3,1.7,2.9,2.1,4.7s0.6,3.9,0.6,6.2v16.1c0,1.3,0.1,2.6,0.2,3.7s0.2,2.1,0.3,2.8h-8c-0.2-0.7-0.4-1.5-0.4-2.4
					s-0.1-1.7-0.1-2.6h-0.1c-1.1,1.5-2.4,2.8-4,3.9s-3.7,1.6-6.3,1.6c-1.4,0-2.8-0.2-4.1-0.7c-1.3-0.5-2.5-1.2-3.5-2.1
					s-1.8-2.1-2.4-3.4s-0.9-2.9-0.9-4.6c0-2.5,0.5-4.5,1.5-6.2c1-1.6,2.3-2.9,4-3.9s3.8-1.6,6.1-2c2.4-0.4,4.9-0.5,7.8-0.5h1.8v-1.4
					c0-0.9-0.1-1.8-0.4-2.6c-0.2-0.9-0.6-1.6-1.2-2.3c-0.5-0.6-1.3-1.2-2.1-1.5c-0.9-0.4-1.9-0.6-3.2-0.6c-1.1,0-2.2,0.1-3.2,0.4
					c-1,0.2-2,0.5-2.9,0.9s-1.7,0.8-2.4,1.2c-0.7,0.4-1.3,0.8-1.7,1.1L1183.1,46.5z M1200.6,63.1h-0.8c-3.8,0-6.8,0.5-8.9,1.5
					s-3.2,2.8-3.2,5.5c0,1.7,0.5,3,1.5,4.1c1,1,2.4,1.6,4.1,1.6c2.7,0,4.5-0.9,5.6-2.8s1.6-4.4,1.6-7.7v-2.2H1200.6z"/>
				<path class="st0" d="M1216.1,72.6c0.3,0.1,0.8,0.3,1.4,0.6c0.6,0.3,1.3,0.5,2.1,0.8c0.8,0.3,1.7,0.5,2.6,0.7c1,0.2,2,0.3,3,0.3
					c1.6,0,3-0.3,4.1-0.8s1.6-1.5,1.6-2.9c0-0.7-0.3-1.4-0.8-2.1s-1.6-1.5-3.2-2.5l-3.6-2.1c-1-0.6-1.9-1.2-2.8-1.8
					s-1.7-1.3-2.5-2.1s-1.4-1.7-1.8-2.8c-0.5-1.1-0.7-2.3-0.7-3.8c0-1.3,0.3-2.6,0.9-3.8s1.4-2.3,2.5-3.3s2.4-1.8,4-2.4
					c1.6-0.6,3.3-0.9,5.3-0.9c2.4,0,4.4,0.2,6.1,0.6c1.7,0.4,2.7,0.7,3.1,0.9l-0.5,6.9c-1.1-0.4-2.3-0.8-3.5-1.1s-2.7-0.5-4.3-0.5
					c-1.8,0-3.1,0.3-3.9,1c-0.8,0.6-1.2,1.5-1.2,2.6c0,1,0.4,1.8,1.1,2.5s1.8,1.4,3,2.2l4.4,2.8c1.1,0.7,2.1,1.4,3,2.1
					c0.9,0.7,1.6,1.4,2.1,2.1c0.6,0.7,1,1.5,1.3,2.3s0.4,1.8,0.4,2.8c0,1.7-0.3,3.2-1,4.6c-0.7,1.3-1.6,2.5-2.9,3.4
					c-1.2,0.9-2.7,1.6-4.3,2.1c-1.7,0.5-3.5,0.8-5.5,0.8c-2.3,0-4.3-0.2-6.1-0.6c-1.8-0.4-3.2-0.8-4.1-1.2L1216.1,72.6z"/>
				<path class="st0" d="M298.4,127.7c0-1.3,0-2.6-0.1-3.6c0-1.1-0.1-2-0.2-2.6h8.3c0.1,0.5,0.2,1.3,0.2,2.3s0.1,2.2,0.1,3.4h0.2
					c0.3-0.8,0.8-1.5,1.3-2.3s1.2-1.4,2-2s1.7-1.1,2.8-1.4c1.1-0.4,2.3-0.5,3.8-0.5c2.3,0,4.3,0.5,5.9,1.5s3,2.4,4,4.1
					c1,1.7,1.8,3.7,2.3,6s0.8,4.7,0.8,7.3c0,6.1-1.1,10.7-3.4,14.1c-2.2,3.3-5.4,5-9.4,5c-1.3,0-2.5-0.2-3.5-0.5s-1.9-0.8-2.7-1.4
					c-0.8-0.6-1.4-1.2-2-1.9c-0.5-0.7-1-1.4-1.3-2.1h-0.1v20.7h-8.9L298.4,127.7L298.4,127.7z M307.7,144.9c0.3,1.5,0.7,2.8,1.2,3.9
					c0.5,1.1,1.3,2,2.1,2.6c0.9,0.6,1.9,0.9,3.1,0.9c2.5,0,4.2-1.1,5.2-3.3s1.5-5.2,1.5-8.8c0-4.3-0.4-7.5-1.3-9.6s-2.6-3.2-5.2-3.2
					c-1.3,0-2.4,0.3-3.3,1s-1.6,1.6-2.2,2.7c-0.5,1.1-0.9,2.5-1.2,4c-0.2,1.5-0.4,3.1-0.4,4.9C307.3,141.8,307.4,143.4,307.7,144.9z
					"/>
				<path class="st0" d="M338.5,123.6c1.2-0.6,2.8-1.2,4.6-1.8c1.9-0.6,4.2-0.9,7-0.9c2.9,0,5.2,0.3,7,1s3.3,1.6,4.3,2.9
					s1.7,2.8,2.1,4.7c0.4,1.8,0.6,3.9,0.6,6.2v16.1c0,1.3,0.1,2.6,0.2,3.7c0.1,1.1,0.2,2.1,0.3,2.8h-8c-0.2-0.7-0.4-1.5-0.4-2.4
					s-0.1-1.7-0.1-2.6H356c-1.1,1.5-2.4,2.8-4,3.9c-1.6,1.1-3.7,1.6-6.3,1.6c-1.4,0-2.8-0.2-4.1-0.7c-1.3-0.5-2.5-1.2-3.5-2.1
					c-1-0.9-1.8-2.1-2.4-3.4c-0.6-1.3-0.9-2.9-0.9-4.6c0-2.5,0.5-4.5,1.5-6.2c1-1.6,2.3-2.9,4-3.9s3.8-1.6,6.1-2
					c2.4-0.4,4.9-0.5,7.8-0.5h1.8V134c0-0.9-0.1-1.8-0.4-2.6c-0.2-0.9-0.6-1.6-1.2-2.3c-0.5-0.6-1.3-1.2-2.1-1.5
					c-0.9-0.4-1.9-0.6-3.2-0.6c-1.1,0-2.2,0.1-3.2,0.4c-1,0.2-2,0.5-2.9,0.9s-1.7,0.8-2.4,1.2c-0.7,0.4-1.3,0.8-1.7,1.1L338.5,123.6
					z M355.9,140.2h-0.8c-3.8,0-6.8,0.5-8.9,1.5s-3.2,2.8-3.2,5.5c0,1.7,0.5,3,1.5,4.1c1,1,2.4,1.6,4.1,1.6c2.7,0,4.5-0.9,5.6-2.8
					c1.1-1.9,1.6-4.4,1.6-7.7L355.9,140.2L355.9,140.2z"/>
				<path class="st0" d="M372.7,127.5c0-1.1,0-2.2-0.1-3.3c0-1-0.1-2-0.2-2.8h8c0,1.1,0.1,2.2,0.2,3.4c0.1,1.1,0.1,2.3,0.1,3.4h0.1
					c0.3-0.7,0.7-1.5,1.1-2.4c0.5-0.9,1.1-1.6,1.9-2.4c0.8-0.7,1.7-1.3,2.7-1.8s2.3-0.8,3.6-0.8c0.3,0,0.5,0,0.8,0.1
					c0.2,0,0.5,0.1,0.7,0.1v8.3c-0.9-0.2-1.7-0.4-2.5-0.4c-0.9,0-1.8,0.2-2.7,0.5c-0.9,0.3-1.7,0.8-2.5,1.5
					c-0.7,0.7-1.3,1.6-1.8,2.8s-0.7,2.6-0.7,4.3v20.2h-8.9v-30.7H372.7z"/>
				<path class="st0" d="M398.7,123.6c1.2-0.6,2.8-1.2,4.6-1.8c1.9-0.6,4.2-0.9,7-0.9c2.9,0,5.2,0.3,7,1s3.3,1.6,4.3,2.9
					s1.7,2.8,2.1,4.7c0.4,1.8,0.6,3.9,0.6,6.2v16.1c0,1.3,0.1,2.6,0.2,3.7c0.1,1.1,0.2,2.1,0.3,2.8h-8c-0.2-0.7-0.4-1.5-0.4-2.4
					s-0.1-1.7-0.1-2.6h-0.1c-1.1,1.5-2.4,2.8-4,3.9c-1.6,1.1-3.7,1.6-6.3,1.6c-1.4,0-2.8-0.2-4.1-0.7c-1.3-0.5-2.5-1.2-3.5-2.1
					c-1-0.9-1.8-2.1-2.4-3.4c-0.6-1.3-0.9-2.9-0.9-4.6c0-2.5,0.5-4.5,1.5-6.2c1-1.6,2.3-2.9,4-3.9s3.8-1.6,6.1-2
					c2.4-0.4,4.9-0.5,7.8-0.5h1.8V134c0-0.9-0.1-1.8-0.4-2.6c-0.2-0.9-0.6-1.6-1.2-2.3c-0.5-0.6-1.3-1.2-2.1-1.5
					c-0.9-0.4-1.9-0.6-3.2-0.6c-1.1,0-2.2,0.1-3.2,0.4c-1,0.2-2,0.5-2.9,0.9s-1.7,0.8-2.4,1.2c-0.7,0.4-1.3,0.8-1.7,1.1L398.7,123.6
					z M416.2,140.2h-0.8c-3.8,0-6.8,0.5-8.9,1.5s-3.2,2.8-3.2,5.5c0,1.7,0.5,3,1.5,4.1c1,1,2.4,1.6,4.1,1.6c2.7,0,4.5-0.9,5.6-2.8
					c1.1-1.9,1.6-4.4,1.6-7.7L416.2,140.2L416.2,140.2z"/>
				<path class="st0" d="M453.1,123.6c1.2-0.6,2.8-1.2,4.6-1.8c1.9-0.6,4.2-0.9,7-0.9c2.9,0,5.2,0.3,7,1s3.3,1.6,4.3,2.9
					s1.7,2.8,2.1,4.7c0.4,1.8,0.6,3.9,0.6,6.2v16.1c0,1.3,0.1,2.6,0.2,3.7c0.1,1.1,0.2,2.1,0.3,2.8h-8c-0.2-0.7-0.4-1.5-0.4-2.4
					s-0.1-1.7-0.1-2.6h-0.1c-1.1,1.5-2.4,2.8-4,3.9c-1.6,1.1-3.7,1.6-6.3,1.6c-1.4,0-2.8-0.2-4.1-0.7c-1.3-0.5-2.5-1.2-3.5-2.1
					c-1-0.9-1.8-2.1-2.4-3.4c-0.6-1.3-0.9-2.9-0.9-4.6c0-2.5,0.5-4.5,1.5-6.2c1-1.6,2.3-2.9,4-3.9s3.8-1.6,6.1-2
					c2.4-0.4,4.9-0.5,7.8-0.5h1.8V134c0-0.9-0.1-1.8-0.4-2.6c-0.2-0.9-0.6-1.6-1.2-2.3c-0.5-0.6-1.3-1.2-2.1-1.5
					c-0.9-0.4-1.9-0.6-3.2-0.6c-1.1,0-2.2,0.1-3.2,0.4c-1,0.2-2,0.5-2.9,0.9s-1.7,0.8-2.4,1.2c-0.7,0.4-1.3,0.8-1.7,1.1L453.1,123.6
					z M470.5,140.2h-0.8c-3.8,0-6.8,0.5-8.9,1.5s-3.2,2.8-3.2,5.5c0,1.7,0.5,3,1.5,4.1c1,1,2.4,1.6,4.1,1.6c2.7,0,4.5-0.9,5.6-2.8
					c1.1-1.9,1.6-4.4,1.6-7.7L470.5,140.2L470.5,140.2z"/>
				<path class="st0" d="M528,146.2h-17.2l-3.6,12H498l16.7-49.9h10l16.1,49.9h-9.4L528,146.2z M526.1,139.2l-6.3-23.3h-0.1
					l-6.9,23.3H526.1z"/>
				<path class="st0" d="M546.3,104.6h8.9v53.6h-8.9V104.6z"/>
				<path class="st0" d="M564.7,105.8h9.2v8.7h-9.2V105.8z M564.9,121.4h8.9v36.8h-8.9V121.4z"/>
				<path class="st0" d="M582.4,127.4c0-1.3,0-2.5-0.1-3.5c0-1-0.1-1.8-0.2-2.5h8.9c0,1,0.1,1.9,0.2,2.9c0.1,1,0.1,1.9,0.1,2.9h0.1
					c0.3-0.7,0.8-1.5,1.3-2.2c0.5-0.8,1.2-1.4,1.9-2s1.6-1.1,2.6-1.5s2.1-0.6,3.4-0.6c1.6,0,2.9,0.2,3.9,0.6s1.9,0.9,2.6,1.5
					c0.7,0.6,1.3,1.2,1.7,1.9c0.4,0.7,0.8,1.3,1,1.8c0.4-0.6,0.9-1.3,1.5-2s1.3-1.3,2-1.9c0.8-0.6,1.7-1,2.7-1.4s2.2-0.6,3.6-0.6
					c2,0,3.7,0.3,5,1c1.4,0.7,2.4,1.7,3.3,2.9c0.8,1.3,1.4,2.8,1.8,4.6c0.4,1.8,0.5,3.8,0.5,6.1v22.7h-8.9V135c0-2.3-0.4-4-1.1-5.2
					c-0.7-1.1-1.9-1.7-3.6-1.7c-1,0-1.9,0.2-2.6,0.6c-0.7,0.4-1.4,1-1.9,1.7s-0.9,1.5-1.1,2.5c-0.3,1-0.4,1.9-0.4,2.9v22.3H602V135
					c0-2.3-0.4-4-1.1-5.2c-0.7-1.1-1.9-1.7-3.6-1.7c-1,0-1.9,0.2-2.6,0.6c-0.7,0.4-1.4,1-1.9,1.7s-0.9,1.5-1.1,2.5
					c-0.3,1-0.4,1.9-0.4,2.9v22.3h-8.9V127.4z"/>
				<path class="st0" d="M665.3,156.5c-1,0.4-2.4,0.9-4.2,1.5c-1.9,0.6-4.1,0.9-6.8,0.9c-3,0-5.5-0.5-7.7-1.5c-2.1-1-3.9-2.3-5.3-4
					c-1.4-1.7-2.4-3.6-3.1-5.9c-0.7-2.2-1-4.6-1-7.1c0-2.8,0.3-5.3,1-7.7s1.7-4.4,3-6.2s2.9-3.1,4.8-4.1c1.9-1,4-1.5,6.3-1.5
					c2,0,3.9,0.3,5.7,1c1.8,0.6,3.3,1.7,4.7,3.3c1.4,1.5,2.4,3.5,3.2,6s1.2,5.6,1.2,9.4v1.7h-21.3c0,3.1,0.7,5.6,2.1,7.4
					c1.4,1.8,3.8,2.7,7.3,2.7c2.7,0,4.8-0.3,6.3-1c1.5-0.6,2.6-1.3,3.4-1.9L665.3,156.5z M658.6,136.7c0-6.5-2.1-9.8-6.2-9.8
					c-1.1,0-2.1,0.3-3,0.9c-0.8,0.6-1.5,1.3-2.1,2.2c-0.5,0.9-0.9,2-1.2,3.1c-0.2,1.2-0.4,2.4-0.4,3.6L658.6,136.7L658.6,136.7z"/>
				<path class="st0" d="M674,127.5c0-1.1,0-2.2-0.1-3.3c0-1-0.1-2-0.2-2.8h8.3c0,1,0.1,1.9,0.2,2.8c0.1,0.9,0.1,1.9,0.1,2.8h0.2
					h-0.1c0.3-0.6,0.8-1.2,1.3-1.9c0.5-0.7,1.1-1.4,1.9-2c0.8-0.6,1.7-1.2,2.8-1.6s2.4-0.6,3.9-0.6c2.1,0,3.8,0.4,5.2,1.1
					s2.5,1.7,3.3,3s1.4,2.7,1.8,4.4c0.4,1.6,0.5,3.4,0.5,5.3v23.7h-8.9v-22.1c0-2.9-0.4-4.9-1.2-6.2s-2.1-1.9-3.9-1.9
					c-1.1,0-2.1,0.2-2.9,0.7c-0.8,0.5-1.5,1.1-2,1.9c-0.5,0.8-0.9,1.7-1.1,2.8c-0.2,1-0.3,2.2-0.3,3.4v21.5H674V127.5z"/>
				<path class="st0" d="M714.4,113.8l8.9-2.7v10.3h7.4v6.5h-7.4V147c0,2,0.3,3.4,1,4c0.7,0.7,1.7,1,3,1c0.8,0,1.5-0.1,2-0.3
					s1-0.3,1.3-0.5v6.3c-0.7,0.3-1.5,0.6-2.5,0.9c-1,0.2-2.1,0.4-3.5,0.4c-3.3,0-5.8-0.8-7.6-2.5c-1.8-1.6-2.7-4.4-2.7-8.3v-20.2
					h-5.9v-6.5h5.9L714.4,113.8L714.4,113.8z"/>
				<path class="st0" d="M738.1,123.6c1.2-0.6,2.8-1.2,4.6-1.8c1.9-0.6,4.2-0.9,7-0.9c2.9,0,5.2,0.3,7,1s3.3,1.6,4.3,2.9
					s1.7,2.8,2.1,4.7c0.4,1.8,0.6,3.9,0.6,6.2v16.1c0,1.3,0.1,2.6,0.2,3.7c0.1,1.1,0.2,2.1,0.3,2.8h-8c-0.2-0.7-0.4-1.5-0.4-2.4
					s-0.1-1.7-0.1-2.6h-0.1c-1.1,1.5-2.4,2.8-4,3.9c-1.6,1.1-3.7,1.6-6.3,1.6c-1.4,0-2.8-0.2-4.1-0.7s-2.5-1.2-3.5-2.1
					c-1-0.9-1.8-2.1-2.4-3.4c-0.6-1.3-0.9-2.9-0.9-4.6c0-2.5,0.5-4.5,1.5-6.2c1-1.6,2.3-2.9,4-3.9s3.8-1.6,6.1-2
					c2.4-0.4,4.9-0.5,7.8-0.5h1.8V134c0-0.9-0.1-1.8-0.4-2.6c-0.2-0.9-0.6-1.6-1.2-2.3c-0.5-0.6-1.3-1.2-2.1-1.5
					c-0.9-0.4-1.9-0.6-3.2-0.6c-1.1,0-2.2,0.1-3.2,0.4c-1,0.2-2,0.5-2.9,0.9s-1.7,0.8-2.4,1.2s-1.3,0.8-1.7,1.1L738.1,123.6z
					 M755.6,140.2h-0.8c-3.8,0-6.8,0.5-8.9,1.5c-2.1,1-3.2,2.8-3.2,5.5c0,1.7,0.5,3,1.5,4.1c1,1,2.4,1.6,4.1,1.6
					c2.7,0,4.5-0.9,5.6-2.8c1.1-1.9,1.6-4.4,1.6-7.7v-2.2H755.6z"/>
				<path class="st0" d="M797.1,157.3c-1,0.4-2.3,0.7-3.8,1s-3.1,0.5-4.9,0.5H788l-1.3,3.9c0.4-0.1,0.8-0.2,1.2-0.3s1-0.1,1.6-0.1
					c2,0,3.5,0.5,4.6,1.5s1.6,2.3,1.6,3.8c0,1.1-0.3,2.1-0.8,2.9c-0.5,0.8-1.1,1.5-1.9,2c-0.8,0.5-1.6,1-2.6,1.2
					c-1,0.3-1.9,0.4-2.7,0.4c-1.5,0-3-0.1-4.4-0.4c-1.4-0.3-2.4-0.6-3.1-1l1.1-2.9c0.7,0.2,1.5,0.5,2.2,0.7c0.8,0.2,1.7,0.3,2.8,0.3
					c1.2,0,2.1-0.3,2.8-0.8c0.6-0.5,1-1.3,1-2.1s-0.3-1.5-0.9-1.9c-0.6-0.5-1.4-0.7-2.4-0.7c-0.7,0-1.2,0-1.6,0.1
					c-0.4,0.1-0.8,0.2-1.1,0.4l-1.3-1.2l2.1-6c-2.4-0.4-4.5-1.1-6.3-2.3c-1.7-1.1-3.2-2.5-4.3-4.2s-1.9-3.5-2.5-5.6
					c-0.5-2.1-0.8-4.3-0.8-6.6c0-2.6,0.3-5.1,1-7.4c0.7-2.3,1.8-4.3,3.2-6c1.5-1.7,3.3-3.1,5.5-4.1s4.9-1.5,8-1.5
					c1.4,0,2.8,0.2,4.3,0.5s2.6,0.7,3.4,1l-0.5,7c-0.8-0.4-1.7-0.8-2.8-1.2c-1-0.4-2.2-0.6-3.4-0.6c-3.4,0-5.8,1.1-7.4,3.2
					c-1.5,2.1-2.3,5.2-2.3,9.2c0,1.7,0.2,3.3,0.6,4.8c0.4,1.5,1,2.8,1.9,3.9c0.8,1.1,1.9,2,3.1,2.6c1.3,0.6,2.8,0.9,4.5,0.9
					c1.1,0,2.3-0.2,3.5-0.6c1.2-0.4,2.2-0.8,2.8-1.2L797.1,157.3z"/>
				<path class="st0" d="M804.4,123.6c1.2-0.6,2.8-1.2,4.6-1.8c1.9-0.6,4.2-0.9,7-0.9c2.9,0,5.2,0.3,7,1s3.3,1.6,4.3,2.9
					s1.7,2.8,2.1,4.7c0.4,1.8,0.6,3.9,0.6,6.2v16.1c0,1.3,0.1,2.6,0.2,3.7c0.1,1.1,0.2,2.1,0.3,2.8h-8c-0.2-0.7-0.4-1.5-0.4-2.4
					s-0.1-1.7-0.1-2.6h0c-1.1,1.5-2.4,2.8-4,3.9c-1.6,1.1-3.7,1.6-6.3,1.6c-1.4,0-2.8-0.2-4.1-0.7s-2.5-1.2-3.5-2.1
					c-1-0.9-1.8-2.1-2.4-3.4c-0.6-1.3-0.9-2.9-0.9-4.6c0-2.5,0.5-4.5,1.5-6.2c1-1.6,2.3-2.9,4-3.9s3.8-1.6,6.1-2
					c2.4-0.4,4.9-0.5,7.8-0.5h1.8V134c0-0.9-0.1-1.8-0.4-2.6c-0.2-0.9-0.6-1.6-1.2-2.3c-0.5-0.6-1.3-1.2-2.1-1.5
					c-0.9-0.4-1.9-0.6-3.2-0.6c-1.1,0-2.2,0.1-3.2,0.4c-1,0.2-2,0.5-2.9,0.9s-1.7,0.8-2.4,1.2s-1.3,0.8-1.7,1.1L804.4,123.6z
					 M805.7,116.6c0-0.6,0.1-1.4,0.3-2.3s0.5-1.8,1-2.7c0.5-0.9,1.2-1.6,2.1-2.3c0.9-0.6,2-1,3.3-1c0.8,0,1.6,0.1,2.4,0.4
					c0.8,0.3,1.5,0.5,2.2,0.8s1.3,0.6,2,0.8s1.2,0.4,1.7,0.4c0.7,0,1.2-0.3,1.6-0.9c0.3-0.6,0.5-1.2,0.5-1.9h4.4
					c0,0.5-0.1,1.3-0.3,2.2c-0.2,0.9-0.5,1.9-1,2.8s-1.2,1.7-2,2.4c-0.9,0.7-2,1-3.3,1c-0.7,0-1.4-0.1-2.1-0.4
					c-0.7-0.3-1.3-0.5-2-0.8s-1.3-0.6-2-0.8c-0.7-0.3-1.3-0.4-1.9-0.4c-0.9,0-1.6,0.3-2,0.8s-0.6,1.2-0.6,2L805.7,116.6L805.7,116.6
					z M821.8,140.2H821c-3.8,0-6.8,0.5-8.9,1.5c-2.1,1-3.2,2.8-3.2,5.5c0,1.7,0.5,3,1.5,4.1c1,1,2.4,1.6,4.1,1.6
					c2.7,0,4.5-0.9,5.6-2.8c1.1-1.9,1.6-4.4,1.6-7.7v-2.2H821.8z"/>
				<path class="st0" d="M838.8,130.5c1-2.4,2.3-4.4,3.8-5.8c1.6-1.4,3.3-2.4,5.3-3c1.9-0.6,3.8-0.9,5.7-0.9s3.8,0.3,5.7,0.9
					s3.7,1.6,5.2,3s2.8,3.4,3.8,5.8c1,2.4,1.5,5.5,1.5,9.3c0,3.9-0.5,7-1.5,9.5s-2.2,4.4-3.8,5.8c-1.5,1.4-3.3,2.4-5.2,2.9
					s-3.8,0.8-5.7,0.8s-3.8-0.3-5.7-0.8s-3.7-1.5-5.3-2.9s-2.8-3.4-3.8-5.8c-1-2.5-1.5-5.6-1.5-9.5
					C837.3,136,837.8,132.9,838.8,130.5z M846.8,144.4c0.2,1.5,0.6,2.9,1.1,4.1c0.5,1.2,1.3,2.2,2.2,2.9s2.1,1.1,3.5,1.1
					s2.6-0.4,3.5-1.1c0.9-0.7,1.6-1.7,2.1-2.9s0.9-2.6,1.1-4.1c0.2-1.5,0.3-3.1,0.3-4.6s-0.1-3.1-0.3-4.6s-0.5-2.9-1.1-4.1
					c-0.5-1.2-1.2-2.2-2.1-2.9c-0.9-0.7-2.1-1.1-3.5-1.1s-2.6,0.4-3.5,1.1s-1.6,1.7-2.2,2.9c-0.5,1.2-0.9,2.6-1.1,4.1
					c-0.2,1.5-0.3,3.1-0.3,4.6C846.5,141.3,846.6,142.9,846.8,144.4z"/>
				<path class="st0" d="M325.3,233.6c-1,0.4-2.4,0.9-4.2,1.5c-1.9,0.6-4.1,0.9-6.8,0.9c-3,0-5.5-0.5-7.7-1.5c-2.1-1-3.9-2.3-5.3-4
					s-2.4-3.6-3.1-5.9c-0.7-2.2-1-4.6-1-7.1c0-2.8,0.3-5.3,1-7.7s1.7-4.4,3-6.2s2.9-3.1,4.8-4.1s4-1.5,6.3-1.5c2,0,3.9,0.3,5.7,1
					c1.8,0.6,3.3,1.7,4.7,3.3c1.4,1.5,2.4,3.5,3.2,6c0.8,2.5,1.2,5.6,1.2,9.4v1.7h-21.3c0,3.1,0.7,5.6,2.1,7.4
					c1.4,1.8,3.8,2.7,7.3,2.7c2.7,0,4.8-0.3,6.3-1c1.5-0.6,2.6-1.3,3.4-1.9L325.3,233.6z M318.6,213.8c0-6.5-2.1-9.8-6.2-9.8
					c-1.1,0-2.1,0.3-3,0.9c-0.8,0.6-1.5,1.3-2.1,2.2c-0.5,0.9-0.9,2-1.2,3.1c-0.2,1.2-0.4,2.4-0.4,3.6H318.6z"/>
				<path class="st0" d="M354.4,200.7c1.2-0.6,2.8-1.2,4.6-1.8c1.9-0.6,4.2-0.9,7-0.9c2.9,0,5.2,0.3,7,1s3.3,1.6,4.3,2.9
					c1,1.3,1.7,2.9,2.1,4.7s0.6,3.9,0.6,6.2v16.1c0,1.3,0.1,2.6,0.2,3.7c0.1,1.1,0.2,2.1,0.3,2.8h-8c-0.2-0.7-0.4-1.5-0.4-2.4
					s-0.1-1.7-0.1-2.6l0,0c-1.1,1.5-2.4,2.8-4,3.9c-1.6,1.1-3.7,1.6-6.3,1.6c-1.4,0-2.8-0.2-4.1-0.7c-1.3-0.5-2.5-1.2-3.5-2.1
					c-1-0.9-1.8-2.1-2.4-3.4c-0.6-1.3-0.9-2.9-0.9-4.6c0-2.5,0.5-4.5,1.5-6.2c1-1.6,2.3-2.9,4-3.9s3.8-1.6,6.1-2
					c2.4-0.4,4.9-0.5,7.8-0.5h1.8v-1.4c0-0.9-0.1-1.8-0.4-2.6c-0.2-0.9-0.6-1.6-1.2-2.3c-0.5-0.6-1.3-1.2-2.1-1.5
					c-0.9-0.4-1.9-0.6-3.2-0.6c-1.1,0-2.2,0.1-3.2,0.4c-1,0.2-2,0.5-2.9,0.9s-1.7,0.8-2.4,1.2c-0.7,0.4-1.3,0.8-1.7,1.1L354.4,200.7
					z M371.9,217.3h-0.8c-3.8,0-6.8,0.5-8.9,1.5s-3.2,2.8-3.2,5.5c0,1.7,0.5,3,1.5,4.1c1,1,2.4,1.6,4.1,1.6c2.7,0,4.5-0.9,5.6-2.8
					c1.1-1.9,1.6-4.4,1.6-7.7L371.9,217.3L371.9,217.3z"/>
				<path class="st0" d="M429.4,223.3h-17.2l-3.6,12h-9.2l16.7-49.9h10l16.1,49.9h-9.4L429.4,223.3z M427.5,216.3l-6.3-23.3H421
					l-6.9,23.3H427.5z"/>
				<path class="st0" d="M447.9,241.1c1,0.6,2.5,1.2,4.5,2c1.9,0.8,4.1,1.1,6.4,1.1c2.1,0,3.8-0.3,5-1c1.3-0.7,2.2-1.5,2.9-2.6
					c0.7-1.1,1.2-2.3,1.4-3.7c0.2-1.4,0.4-2.8,0.4-4.3v-3.5h-0.1c-0.4,0.7-0.8,1.4-1.3,2.2c-0.5,0.7-1.1,1.4-1.9,2s-1.7,1.1-2.8,1.5
					c-1.1,0.4-2.3,0.6-3.8,0.6c-1.3,0-2.7-0.3-4.2-0.8s-2.9-1.4-4.2-2.8c-1.3-1.4-2.4-3.2-3.2-5.6c-0.9-2.4-1.3-5.4-1.3-9.2
					c0-2.5,0.2-4.9,0.7-7.3c0.5-2.3,1.3-4.3,2.3-6.1c1.1-1.7,2.4-3.1,4.1-4.2c1.7-1,3.7-1.6,6.2-1.6c1.3,0,2.5,0.2,3.5,0.5
					c1,0.4,1.9,0.8,2.6,1.4c0.8,0.6,1.4,1.2,2,2s1.1,1.6,1.6,2.4h0.3c0-1,0-1.9,0.1-2.9s0.1-1.9,0.2-2.9h8c-0.1,1-0.2,1.9-0.2,2.9
					s-0.1,1.9-0.1,2.9v27.2c0,2.9-0.3,5.5-0.8,7.9s-1.4,4.5-2.7,6.3c-1.3,1.7-3,3.1-5.2,4.1s-5,1.5-8.4,1.5c-3,0-5.5-0.3-7.7-0.9
					c-2.2-0.6-3.8-1-4.9-1.4L447.9,241.1z M455.4,222.1c0.3,1.5,0.7,2.8,1.3,3.8c0.5,1,1.2,1.7,1.9,2.2c0.7,0.5,1.4,0.7,2.2,0.7
					c2.8,0,4.8-1,6-3s1.8-5.1,1.8-9.3c0-3.9-0.7-6.8-2-8.8s-3-3-5.2-3c-2.3,0-4,1.1-5,3.1c-1,2.1-1.5,5-1.5,8.7
					C454.9,218.7,455.1,220.5,455.4,222.1z"/>
				<path class="st0" d="M485.5,204.6c0-1.1,0-2.2-0.1-3.3c0-1-0.1-2-0.2-2.8h8c0,1.1,0.1,2.2,0.2,3.4c0.1,1.1,0.1,2.3,0.1,3.4h0.1
					c0.3-0.7,0.7-1.5,1.1-2.4c0.5-0.9,1.1-1.6,1.9-2.4c0.8-0.7,1.7-1.3,2.7-1.8s2.3-0.8,3.6-0.8c0.3,0,0.5,0,0.8,0.1
					c0.2,0,0.5,0.1,0.7,0.1v8.3c-0.9-0.2-1.7-0.4-2.5-0.4c-0.9,0-1.8,0.2-2.7,0.5c-0.9,0.3-1.7,0.8-2.5,1.5
					c-0.7,0.7-1.3,1.6-1.8,2.8s-0.7,2.6-0.7,4.3v20.2h-8.9v-30.7H485.5z"/>
				<path class="st0" d="M511.1,182.9h9.2v8.7h-9.2L511.1,182.9L511.1,182.9z M511.2,198.5h8.9v36.8h-8.9L511.2,198.5L511.2,198.5z"
					/>
				<path class="st0" d="M554,234.4c-1,0.4-2.3,0.7-3.8,1s-3.1,0.5-4.9,0.5c-3.1,0-5.7-0.5-7.8-1.5c-2.2-1-4-2.4-5.4-4.1
					c-1.4-1.7-2.4-3.7-3.1-6c-0.7-2.3-1-4.7-1-7.4c0-2.6,0.3-5.1,1-7.4c0.7-2.3,1.8-4.3,3.2-6c1.5-1.7,3.3-3.1,5.5-4.1
					s4.9-1.5,8-1.5c1.4,0,2.8,0.2,4.3,0.5s2.6,0.7,3.4,1l-0.5,7c-0.8-0.4-1.7-0.8-2.8-1.2c-1-0.4-2.2-0.6-3.4-0.6
					c-3.4,0-5.8,1.1-7.4,3.2c-1.5,2.1-2.3,5.2-2.3,9.2c0,1.7,0.2,3.3,0.6,4.8c0.4,1.5,1,2.8,1.9,3.9c0.8,1.1,1.9,2,3.1,2.6
					c1.3,0.6,2.8,0.9,4.5,0.9c1.1,0,2.3-0.2,3.5-0.6c1.2-0.4,2.2-0.8,2.8-1.2L554,234.4z"/>
				<path class="st0" d="M588.5,229.3c0,1.1,0,2.2,0.1,3.3c0,1,0.1,2,0.2,2.8h-8.3c0-1-0.1-1.9-0.2-2.8c-0.1-0.9-0.1-1.9-0.1-2.8
					l-0.2-0.1l0.1,0.1c-0.4,0.7-0.9,1.4-1.4,2.1c-0.5,0.7-1.2,1.4-1.9,2c-0.8,0.6-1.7,1.1-2.7,1.5s-2.3,0.6-3.7,0.6
					c-2.1,0-3.8-0.4-5.2-1.1c-1.4-0.7-2.5-1.7-3.3-3s-1.4-2.7-1.8-4.4c-0.4-1.6-0.5-3.4-0.5-5.3v-23.7h8.9v22.1
					c0,2.9,0.4,4.9,1.3,6.2c0.8,1.2,2.2,1.9,4,1.9c1.2,0,2.2-0.3,2.9-0.8c0.8-0.5,1.4-1.2,1.9-2s0.8-1.8,1-2.9
					c0.2-1.1,0.3-2.2,0.3-3.4v-21.1h8.9v30.8H588.5z"/>
				<path class="st0" d="M597.4,181.7h8.9v53.6h-8.9V181.7z"/>
				<path class="st0" d="M618.4,190.9l8.9-2.7v10.3h7.4v6.5h-7.4v19.1c0,2,0.3,3.4,1,4c0.7,0.7,1.7,1,3,1c0.8,0,1.5-0.1,2-0.3
					s1-0.3,1.3-0.5v6.3c-0.7,0.3-1.5,0.6-2.5,0.9c-1,0.2-2.1,0.4-3.5,0.4c-3.3,0-5.8-0.8-7.6-2.5c-1.8-1.6-2.7-4.4-2.7-8.3V205h-5.9
					v-6.5h5.9L618.4,190.9L618.4,190.9z"/>
				<path class="st0" d="M669.4,229.3c0,1.1,0,2.2,0.1,3.3c0,1,0.1,2,0.2,2.8h-8.3c0-1-0.1-1.9-0.2-2.8c-0.1-0.9-0.1-1.9-0.1-2.8
					l-0.2-0.1l0.1,0.1c-0.4,0.7-0.9,1.4-1.4,2.1c-0.5,0.7-1.2,1.4-1.9,2c-0.8,0.6-1.7,1.1-2.7,1.5s-2.3,0.6-3.7,0.6
					c-2.1,0-3.8-0.4-5.2-1.1c-1.4-0.7-2.5-1.7-3.3-3s-1.4-2.7-1.8-4.4c-0.4-1.6-0.5-3.4-0.5-5.3v-23.7h8.9v22.1
					c0,2.9,0.4,4.9,1.3,6.2c0.8,1.2,2.2,1.9,4,1.9c1.2,0,2.2-0.3,2.9-0.8c0.8-0.5,1.4-1.2,1.9-2s0.8-1.8,1-2.9
					c0.2-1.1,0.3-2.2,0.3-3.4v-21.1h8.9v30.8H669.4z"/>
				<path class="st0" d="M677.7,204.6c0-1.1,0-2.2-0.1-3.3c0-1-0.1-2-0.2-2.8h8c0,1.1,0.1,2.2,0.2,3.4c0.1,1.1,0.1,2.3,0.1,3.4h0.1
					c0.3-0.7,0.7-1.5,1.1-2.4c0.5-0.9,1.1-1.6,1.9-2.4c0.8-0.7,1.7-1.3,2.7-1.8s2.3-0.8,3.6-0.8c0.3,0,0.5,0,0.8,0.1
					c0.2,0,0.5,0.1,0.7,0.1v8.3c-0.9-0.2-1.7-0.4-2.5-0.4c-0.9,0-1.8,0.2-2.7,0.5s-1.7,0.8-2.5,1.5c-0.7,0.7-1.3,1.6-1.8,2.8
					s-0.7,2.6-0.7,4.3v20.2h-8.9v-30.7H677.7z"/>
				<path class="st0" d="M703.7,200.7c1.2-0.6,2.8-1.2,4.6-1.8c1.9-0.6,4.2-0.9,7-0.9c2.9,0,5.2,0.3,7,1s3.3,1.6,4.3,2.9
					c1,1.3,1.7,2.9,2.1,4.7c0.4,1.8,0.6,3.9,0.6,6.2v16.1c0,1.3,0.1,2.6,0.2,3.7c0.1,1.1,0.2,2.1,0.3,2.8h-8
					c-0.2-0.7-0.4-1.5-0.4-2.4s-0.1-1.7-0.1-2.6h-0.1c-1.1,1.5-2.4,2.8-4,3.9c-1.6,1.1-3.7,1.6-6.3,1.6c-1.4,0-2.8-0.2-4.1-0.7
					s-2.5-1.2-3.5-2.1c-1-0.9-1.8-2.1-2.4-3.4c-0.6-1.3-0.9-2.9-0.9-4.6c0-2.5,0.5-4.5,1.5-6.2c1-1.6,2.3-2.9,4-3.9s3.8-1.6,6.1-2
					c2.4-0.4,4.9-0.5,7.8-0.5h1.8v-1.4c0-0.9-0.1-1.8-0.4-2.6c-0.2-0.9-0.6-1.6-1.2-2.3c-0.5-0.6-1.3-1.2-2.1-1.5
					c-0.9-0.4-1.9-0.6-3.2-0.6c-1.1,0-2.2,0.1-3.2,0.4c-1,0.2-2,0.5-2.9,0.9s-1.7,0.8-2.4,1.2s-1.3,0.8-1.7,1.1L703.7,200.7z
					 M721.2,217.3h-0.8c-3.8,0-6.8,0.5-8.9,1.5c-2.1,1-3.2,2.8-3.2,5.5c0,1.7,0.5,3,1.5,4.1c1,1,2.4,1.6,4.1,1.6
					c2.7,0,4.5-0.9,5.6-2.8c1.1-1.9,1.6-4.4,1.6-7.7v-2.2H721.2z"/>
			</g>
		</g>
	</g>
</g>
<g id="Layer_1_00000068652659463320087270000000989799232606004405_">
</g>
</svg>
