<?xml version="1.0" encoding="utf-8"?>
<!-- Generator: Adobe Illustrator 25.4.1, SVG Export Plug-In . SVG Version: 6.00 Build 0)  -->
<svg version="1.1" xmlns="http://www.w3.org/2000/svg" xmlns:xlink="http://www.w3.org/1999/xlink" x="0px" y="0px"
	 viewBox="0 0 419 60" style="enable-background:new 0 0 419 60;" xml:space="preserve">
<style type="text/css">
	.st0{fill:#3A8DDE;}
</style>
<g id="Capa_1">
	<g>
		<path class="st0" d="M32.81,9.7l-0.05,7.01H16.44v7.49h15.07v7.01H16.44v12.14H7.66V9.7H32.81z"/>
		<path class="st0" d="M57.53,37.39H42.99l-2.35,5.95h-9.02L46.06,9.7h9.02L69.2,43.34h-9.36L57.53,37.39z M54.94,30.67l-4.61-12
			l-4.7,12H54.94z"/>
		<path class="st0" d="M96.63,11.42c2.77,1.5,4.94,3.57,6.53,6.19c1.58,2.62,2.38,5.57,2.38,8.83c0,3.3-0.79,6.27-2.38,8.93
			c-1.58,2.66-3.76,4.75-6.53,6.29s-5.86,2.3-9.29,2.3c-3.42,0-6.52-0.76-9.29-2.28c-2.77-1.52-4.94-3.62-6.53-6.29
			s-2.38-5.66-2.38-8.95c0-3.26,0.79-6.21,2.38-8.83c1.58-2.62,3.76-4.69,6.53-6.19s5.86-2.26,9.29-2.26
			C90.76,9.17,93.86,9.92,96.63,11.42z M82.8,17.9c-1.42,0.86-2.55,2.06-3.38,3.58c-0.83,1.52-1.25,3.19-1.25,5.02
			c0,1.86,0.42,3.54,1.27,5.06s1.98,2.72,3.38,3.6c1.41,0.88,2.94,1.32,4.61,1.32c1.66,0,3.19-0.44,4.58-1.32s2.49-2.08,3.29-3.6
			c0.8-1.52,1.2-3.21,1.2-5.06c0-1.82-0.4-3.5-1.2-5.02c-0.8-1.52-1.9-2.71-3.29-3.58c-1.39-0.86-2.92-1.3-4.58-1.3
			C85.77,16.61,84.23,17.04,82.8,17.9z"/>
		<path class="st0" d="M131.48,14.09c-1.74-0.75-3.53-1.13-5.35-1.13c-2.5,0-4.79,0.6-6.89,1.8s-3.75,2.84-4.97,4.92
			s-1.82,4.35-1.82,6.82c0,2.43,0.61,4.69,1.82,6.77c1.22,2.08,2.87,3.73,4.97,4.94c2.1,1.22,4.39,1.82,6.89,1.82
			c1.82,0,3.6-0.36,5.33-1.08s3.26-1.72,4.61-3l2.35,2.54c-1.7,1.6-3.62,2.86-5.78,3.77s-4.39,1.37-6.7,1.37
			c-3.17,0-6.08-0.76-8.74-2.28c-2.66-1.52-4.76-3.59-6.31-6.22c-1.55-2.62-2.33-5.5-2.33-8.64c0-3.1,0.78-5.96,2.35-8.57
			s3.69-4.67,6.36-6.19s5.61-2.28,8.81-2.28c2.27,0,4.48,0.43,6.62,1.3c2.14,0.86,4.03,2.08,5.66,3.65l-2.3,2.78
			C134.75,15.87,133.22,14.84,131.48,14.09z"/>
		<path class="st0" d="M160.49,43.34V39.4c-2.02,2.72-5.1,4.08-9.26,4.08c-1.7,0-3.2-0.34-4.51-1.01s-2.32-1.58-3.02-2.74
			c-0.7-1.15-1.06-2.45-1.06-3.89c0-2.21,0.83-3.96,2.5-5.26c1.66-1.3,3.98-1.96,6.96-1.99h8.3v-1.58c0-1.89-0.58-3.35-1.73-4.39
			s-2.83-1.56-5.04-1.56c-2.59,0-5.26,0.98-8.02,2.93l-1.58-2.64c1.79-1.18,3.45-2.05,4.97-2.59s3.3-0.82,5.35-0.82
			c3.1,0,5.5,0.77,7.18,2.3c1.68,1.54,2.54,3.66,2.57,6.38l0.05,16.7h-3.66V43.34z M157.44,38.86c1.52-1.01,2.52-2.41,3-4.2v-3.07
			h-7.87c-4.29,0-6.43,1.38-6.43,4.13c0,1.41,0.53,2.54,1.58,3.38c1.06,0.85,2.46,1.27,4.22,1.27
			C154.09,40.37,155.92,39.86,157.44,38.86z"/>
		<path class="st0" d="M192.53,19.58c1.84,1.09,3.27,2.6,4.3,4.54c1.02,1.94,1.54,4.15,1.54,6.65c0,2.46-0.5,4.66-1.51,6.6
			s-2.42,3.44-4.25,4.51c-1.82,1.07-3.92,1.61-6.29,1.61c-2.24,0-4.2-0.49-5.88-1.46c-1.68-0.98-3-2.34-3.96-4.1v14.74h-3.74V18.1
			h3.74v5.42c0.96-1.76,2.28-3.13,3.96-4.1c1.68-0.98,3.61-1.46,5.78-1.46C188.59,17.95,190.69,18.5,192.53,19.58z M190.2,38.95
			c1.38-0.82,2.45-1.94,3.22-3.38c0.77-1.44,1.15-3.07,1.15-4.9c0-1.79-0.38-3.42-1.15-4.87c-0.77-1.46-1.84-2.59-3.22-3.41
			s-2.93-1.22-4.66-1.22c-1.76,0-3.33,0.41-4.7,1.22c-1.38,0.82-2.45,1.94-3.22,3.38s-1.15,3.07-1.15,4.9c0,1.82,0.38,3.46,1.15,4.9
			c0.77,1.44,1.84,2.57,3.22,3.38c1.38,0.82,2.94,1.22,4.7,1.22C187.28,40.18,188.83,39.77,190.2,38.95z"/>
		<path class="st0" d="M220.64,43.34V39.4c-2.02,2.72-5.1,4.08-9.26,4.08c-1.7,0-3.2-0.34-4.51-1.01s-2.32-1.58-3.02-2.74
			c-0.7-1.15-1.06-2.45-1.06-3.89c0-2.21,0.83-3.96,2.5-5.26c1.66-1.3,3.98-1.96,6.96-1.99h8.3v-1.58c0-1.89-0.58-3.35-1.73-4.39
			s-2.83-1.56-5.04-1.56c-2.59,0-5.26,0.98-8.02,2.93l-1.58-2.64c1.79-1.18,3.45-2.05,4.97-2.59s3.3-0.82,5.35-0.82
			c3.1,0,5.5,0.77,7.18,2.3s2.54,3.66,2.57,6.38l0.05,16.7h-3.66V43.34z M217.59,38.86c1.52-1.01,2.52-2.41,3-4.2v-3.07h-7.87
			c-4.29,0-6.43,1.38-6.43,4.13c0,1.41,0.53,2.54,1.58,3.38c1.06,0.85,2.46,1.27,4.22,1.27C214.23,40.37,216.07,39.86,217.59,38.86z
			"/>
		<path class="st0" d="M242.76,21.31c-1.73,0-3.27,0.4-4.63,1.2c-1.36,0.8-2.42,1.91-3.19,3.34c-0.77,1.42-1.15,3.05-1.15,4.87
			c0,1.86,0.38,3.5,1.15,4.92c0.77,1.42,1.83,2.54,3.19,3.34s2.9,1.2,4.63,1.2c1.66,0,3.16-0.28,4.49-0.84s2.44-1.37,3.34-2.42
			l2.16,2.21c-1.15,1.38-2.59,2.45-4.32,3.22c-1.73,0.77-3.66,1.15-5.81,1.15c-2.43,0-4.59-0.54-6.48-1.61s-3.37-2.58-4.44-4.51
			c-1.07-1.94-1.61-4.15-1.61-6.65c0-2.46,0.54-4.66,1.61-6.6s2.56-3.45,4.46-4.54c1.9-1.09,4.06-1.63,6.46-1.63
			c2.02,0,3.85,0.33,5.5,0.98c1.65,0.66,3.06,1.58,4.25,2.76l-2.06,2.59C248.25,22.3,245.74,21.31,242.76,21.31z"/>
		<path class="st0" d="M263.14,9c0.46,0.5,0.7,1.11,0.7,1.85c0,0.74-0.23,1.34-0.7,1.82s-1.05,0.72-1.75,0.72s-1.29-0.24-1.75-0.72
			s-0.7-1.09-0.7-1.82c0-0.74,0.23-1.35,0.7-1.85c0.46-0.5,1.05-0.74,1.75-0.74S262.67,8.5,263.14,9z M263.26,18.1v25.25h-3.7V18.1
			H263.26z"/>
		<path class="st0" d="M285.43,41.62c-1.89,1.25-3.82,1.87-5.81,1.87c-1.92,0-3.46-0.6-4.61-1.8s-1.73-2.98-1.73-5.35V21.79h-3.65
			v-2.93h3.65v-6.62h3.7v6.62H285v2.93h-8.02v13.92c0,1.5,0.28,2.6,0.84,3.29c0.56,0.69,1.4,1.03,2.52,1.03
			c1.31-0.06,2.66-0.5,4.03-1.3L285.43,41.62z"/>
		<path class="st0" d="M306.79,43.34V39.4c-2.02,2.72-5.1,4.08-9.26,4.08c-1.7,0-3.2-0.34-4.51-1.01s-2.32-1.58-3.02-2.74
			c-0.7-1.15-1.06-2.45-1.06-3.89c0-2.21,0.83-3.96,2.5-5.26c1.66-1.3,3.98-1.96,6.96-1.99h8.3v-1.58c0-1.89-0.58-3.35-1.73-4.39
			c-1.15-1.04-2.83-1.56-5.04-1.56c-2.59,0-5.26,0.98-8.02,2.93l-1.58-2.64c1.79-1.18,3.45-2.05,4.97-2.59s3.3-0.82,5.35-0.82
			c3.1,0,5.5,0.77,7.18,2.3s2.54,3.66,2.57,6.38l0.05,16.7h-3.66V43.34z M303.75,38.86c1.52-1.01,2.52-2.41,3-4.2v-3.07h-7.87
			c-4.29,0-6.43,1.38-6.43,4.13c0,1.41,0.53,2.54,1.58,3.38c1.06,0.85,2.46,1.27,4.22,1.27C300.39,40.37,302.23,39.86,303.75,38.86z
			"/>
		<path class="st0" d="M328.92,21.31c-1.73,0-3.27,0.4-4.63,1.2c-1.36,0.8-2.42,1.91-3.19,3.34c-0.77,1.42-1.15,3.05-1.15,4.87
			c0,1.86,0.38,3.5,1.15,4.92s1.83,2.54,3.19,3.34c1.36,0.8,2.9,1.2,4.63,1.2c1.66,0,3.16-0.28,4.49-0.84s2.44-1.37,3.34-2.42
			l2.16,2.21c-1.15,1.38-2.59,2.45-4.32,3.22s-3.66,1.15-5.81,1.15c-2.43,0-4.59-0.54-6.48-1.61s-3.37-2.58-4.44-4.51
			c-1.07-1.94-1.61-4.15-1.61-6.65c0-2.46,0.54-4.66,1.61-6.6c1.07-1.94,2.56-3.45,4.46-4.54s4.06-1.63,6.46-1.63
			c2.02,0,3.85,0.33,5.5,0.98c1.65,0.66,3.06,1.58,4.25,2.76l-2.06,2.59C334.41,22.3,331.9,21.31,328.92,21.31z"/>
		<path class="st0" d="M349.3,9c0.46,0.5,0.7,1.11,0.7,1.85c0,0.74-0.23,1.34-0.7,1.82s-1.05,0.72-1.75,0.72s-1.29-0.24-1.75-0.72
			s-0.7-1.09-0.7-1.82c0-0.74,0.23-1.35,0.7-1.85c0.46-0.5,1.05-0.74,1.75-0.74S348.83,8.5,349.3,9z M349.42,18.1v25.25h-3.7V18.1
			H349.42z"/>
		<path class="st0" d="M375.43,19.56c1.95,1.07,3.47,2.58,4.56,4.51c1.09,1.94,1.63,4.14,1.63,6.6s-0.54,4.67-1.63,6.62
			s-2.61,3.47-4.56,4.56s-4.16,1.63-6.62,1.63c-2.5,0-4.71-0.54-6.65-1.63s-3.45-2.6-4.54-4.54c-1.09-1.94-1.63-4.15-1.63-6.65
			c0-2.46,0.54-4.66,1.63-6.6s2.6-3.44,4.54-4.51s4.15-1.61,6.65-1.61C371.27,17.95,373.48,18.49,375.43,19.56z M364.11,22.46
			c-1.38,0.8-2.45,1.92-3.22,3.36s-1.15,3.07-1.15,4.9c0,1.86,0.38,3.5,1.15,4.94s1.84,2.56,3.22,3.36s2.94,1.2,4.7,1.2
			s3.33-0.4,4.7-1.2c1.38-0.8,2.45-1.92,3.22-3.36s1.15-3.09,1.15-4.94c0-1.82-0.38-3.46-1.15-4.9s-1.85-2.56-3.24-3.36
			c-1.39-0.8-2.95-1.2-4.68-1.2C367.05,21.26,365.48,21.66,364.11,22.46z M375.82,9.07l-6,4.75l-3.26-0.38l5.42-6.1L375.82,9.07z"/>
		<path class="st0" d="M408.8,20.57c1.7,1.74,2.54,4.15,2.54,7.22v15.55h-3.74V28.75c0-2.24-0.63-4-1.9-5.28
			c-1.26-1.28-3.02-1.92-5.26-1.92c-2.46,0.03-4.44,0.79-5.93,2.28s-2.34,3.48-2.57,5.98v13.54h-3.74V18.1h3.74v5.57
			c1.73-3.74,4.99-5.65,9.79-5.71C404.75,17.95,407.1,18.82,408.8,20.57z"/>
	</g>
</g>
<g id="Layer_1">
</g>
</svg>
