<?xml version="1.0" encoding="utf-8"?>
<!-- Generator: Adobe Illustrator 16.0.0, SVG Export Plug-In . SVG Version: 6.00 Build 0)  -->
<!DOCTYPE svg PUBLIC "-//W3C//DTD SVG 1.1//EN" "http://www.w3.org/Graphics/SVG/1.1/DTD/svg11.dtd">
<svg version="1.1" id="Capa_1" xmlns="http://www.w3.org/2000/svg" xmlns:xlink="http://www.w3.org/1999/xlink" x="0px" y="0px"
	 width="40px" height="40px" viewBox="82.52 22.52 40 40" enable-background="new 82.52 22.52 40 40" xml:space="preserve">
<circle fill="#CCCCCC" cx="102.52" cy="42.52" r="19.417"/>
<g>
	<path fill="#FFFFFF" d="M107.532,44.372h-6.949v7.64h-4.406V33.029h12.687v3.39h-8.28v4.563h6.949V44.372z"/>
</g>
</svg>
