<?xml version="1.0" encoding="utf-8"?>
<!-- Generator: Adobe Illustrator 25.4.1, SVG Export Plug-In . SVG Version: 6.00 Build 0)  -->
<svg version="1.1" xmlns="http://www.w3.org/2000/svg" xmlns:xlink="http://www.w3.org/1999/xlink" x="0px" y="0px"
	 viewBox="0 0 300 300" style="enable-background:new 0 0 300 300;" xml:space="preserve">
<style type="text/css">
	.st0{fill:#F6B729;}
	.st1{fill:#FFFFFF;}
	.st2{opacity:0.13;fill:#010101;}
</style>
<g id="Capa_1">
</g>
<g id="Layer_1">
	<circle class="st0" cx="149.68" cy="150.47" r="150"/>
	<g>
		<path class="st1" d="M108.85,84.5v140h-26V106.3h-29.6V84.5H108.85z"/>
		<path class="st1" d="M224.25,150.2c9.46,7.67,14.2,18.1,14.2,31.3c0,8.4-2.07,16-6.2,22.8c-4.13,6.8-10.33,12.2-18.6,16.2
			c-8.27,4-18.47,6-30.6,6c-10,0-19.67-1.43-29-4.3c-9.33-2.87-17.2-6.83-23.6-11.9l11-20.2c5.2,4.27,11.43,7.63,18.7,10.1
			c7.27,2.47,14.77,3.7,22.5,3.7c9.2,0,16.43-1.9,21.7-5.7c5.27-3.8,7.9-9.03,7.9-15.7c0-7.2-2.83-12.63-8.5-16.3
			c-5.67-3.67-15.37-5.5-29.1-5.5h-33.8l7.2-76.2h82.2v21.8h-60.2l-3,32.4h13.4C200.18,138.7,214.78,142.54,224.25,150.2z"/>
	</g>
	<path class="st2" d="M238.63,29.2C23.92,19.99,16.87,217.47,16.82,218.9C6.28,198.38,0.34,175.12,0.34,150.48
		c0-82.85,67.16-150,150-150C183.34,0.48,213.86,11.14,238.63,29.2z"/>
</g>
</svg>
