<?xml version="1.0" encoding="utf-8"?>
<!-- Generator: Adobe Illustrator 26.0.2, SVG Export Plug-In . SVG Version: 6.00 Build 0)  -->
<svg version="1.1" id="Capa_1" xmlns="http://www.w3.org/2000/svg" xmlns:xlink="http://www.w3.org/1999/xlink" x="0px" y="0px"
	 viewBox="0 0 300 300" style="enable-background:new 0 0 300 300;" xml:space="preserve">
<style type="text/css">
	.st0{fill:#028477;}
	.st1{opacity:0.13;fill:#010101;enable-background:new    ;}
	.st2{fill:#FFFFFF;}
</style>
<g id="Capa_1_00000031891771775502380200000002619156174781093027_">
</g>
<g id="Modo_de_aislamiento">
	<g>
		<circle class="st0" cx="150.1" cy="150" r="149.9"/>
		<path class="st1" d="M238.1,28.9C23.6,19.7,16.5,217,16.5,218.5C5.9,198,0,174.7,0,150.1C0,67.3,67.1,0.2,149.9,0.2
			C182.8,0.2,213.3,10.9,238.1,28.9z"/>
	</g>
	<g>
		<g>
			<path class="st2" d="M127.7,96.2l-75.3,43.4c-9.9,5.7-9.9,15.1,0,20.8l75.3,43.5c9.9,5.7,18,1,18-10.4v-13.3l79.1,0
				c16.6,0,30.1-13.5,30.1-30.1s-13.5-30.1-30.1-30.1l-79.1,0v-13.3C145.7,95.1,137.6,90.5,127.7,96.2z"/>
		</g>
	</g>
</g>
</svg>
