<?xml version="1.0" encoding="utf-8"?>
<!-- Generator: Adobe Illustrator 26.0.2, SVG Export Plug-In . SVG Version: 6.00 Build 0)  -->
<svg version="1.1" id="Capa_1" xmlns="http://www.w3.org/2000/svg" xmlns:xlink="http://www.w3.org/1999/xlink" x="0px" y="0px"
	 viewBox="0 0 300 300" style="enable-background:new 0 0 300 300;" xml:space="preserve">
<style type="text/css">
	.st0{fill:#028477;}
	.st1{opacity:0.13;fill:#010101;enable-background:new    ;}
	.st2{fill:#FFFFFF;}
</style>
<g id="Capa_1_00000000924963857875714340000004011184840241258882_">
</g>
<g id="Modo_de_aislamiento">
	<g>
		<circle class="st0" cx="150.1" cy="150" r="149.9"/>
		<path class="st1" d="M238.1,28.9C23.6,19.7,16.5,217,16.5,218.5C5.9,198,0,174.7,0,150.1C0,67.3,67.1,0.2,149.9,0.2
			C182.8,0.2,213.3,10.9,238.1,28.9z"/>
	</g>
	<g>
		<g>
			<path class="st2" d="M96.2,172.3l43.4,75.3c5.7,9.9,15.1,9.9,20.8,0l43.5-75.3c5.7-9.9,1-18-10.4-18h-13.3l0-79.1
				c0-16.6-13.5-30.1-30.1-30.1s-30.1,13.5-30.1,30.1l0,79.1h-13.3C95.1,154.3,90.5,162.4,96.2,172.3z"/>
		</g>
	</g>
</g>
</svg>
